#lambda(mu)  n           k
2	 1.55733	 0.011485
2.5	 1.54907	 0.01454
3	 1.54059	 0.01853
3.5	 1.53094	 0.02147
4	 1.51831	 0.02503
4.5	 1.50191	 0.028306
5	 1.48457	 0.03255
5.5	 1.46251	 0.035368
6	 1.42962	 0.03878
6.2	 1.41583	 0.040316
6.4	 1.39983	 0.04179
6.6	 1.37847	 0.043102
6.8	 1.36142	 0.044442
7	 1.33813	 0.04561
7.1	 1.32787	 0.046807
7.2	 1.31425	 0.04842
7.3	 1.29985	 0.050091
7.4	 1.28527	 0.052256
7.5	 1.25884	 0.05444
7.6	 1.24323	 0.05665
7.7	 1.21816	 0.058972
7.8	 1.19611	 0.06213
7.9	 1.16824	 0.06500
8.00117	 1.14436	 0.063541
8.01056	 1.13602	 0.06427
8.01998	 1.13006	 0.069163
8.02941	 1.13352	 0.077928
8.03887	 1.1387 	 0.06655
8.04835	 1.12134	 0.066951
8.05785	 1.1281 	 0.079338
8.06738	 1.12741	 0.063534
8.07692	 1.11585	 0.072857
8.08649	 1.12412	 0.063513
8.09609	 1.10064	 0.064645
8.1057	 1.1125 	 0.074759
8.11534	 1.0943 	 0.058222
8.125	 1.08453	 0.08189
8.13468	 1.09235	 0.080551
8.14439	 1.09177	 0.090229
8.15412	 1.10055	 0.075532
8.16388	 1.08426	 0.073981
8.17365	 1.07789	 0.07529
8.18345	 1.06958	 0.087326
8.19328	 1.07827	 0.089181
8.20313	 1.07518	 0.091087
8.213	 1.08289	 0.084438
8.22289	 1.07459	 0.077561
8.23281	 1.065  	 0.068911
8.24275	 1.04649	 0.081475
8.25272	 1.06029	 0.088349
8.26271	 1.05486	 0.083311
8.27273	 1.06295	 0.066187
8.28277	 1.0238 	 0.056142
8.29283	 1.01035	 0.093697
8.30292	 1.03087	 0.08441
8.31303	 1.01382	 0.087779
8.32317	 1.01841	 0.0875
8.33333	 1.00101	 0.092588
8.34352	 1.02127	 0.103409
8.35373	 1.00716	 0.075659
8.36397	 0.982122	 0.098178
8.37423	 1.01044	 0.09842
8.38452	 0.987743	 0.081842
8.39483	 0.98736	 0.095874
8.40517	 0.977463	 0.077445
8.41554	 0.957244	 0.095259
8.42593	 0.966913	 0.09226
8.43634	 0.950781	 0.09276
8.44678	 0.95049	 0.0908
8.45725	 0.92729	 0.091982
8.46774	 0.92633	 0.109007
8.47826	 0.92442	 0.11474
8.48881	 0.938334	 0.110952
8.49938	 0.921925	 0.090992
8.50998	 0.902415	 0.098013
8.5206	 0.89225	 0.10437
8.53125	 0.89212	 0.11119
8.54193	 0.883118	 0.102691
8.55263	 0.871542	 0.109109
8.56336	 0.863662	 0.103851
8.57412	 0.84528	 0.11046
8.58491	 0.842425	 0.115588
8.59572	 0.830106	 0.111561
8.60656	 0.814077	 0.116461
8.61742	 0.803324	 0.121358
8.62832	 0.790249	 0.12613
8.63924	 0.78127	 0.12774
8.65019	 0.75754	 0.12642
8.66117	 0.735426	 0.143283
8.67217	 0.718295	 0.156976
8.68321	 0.697759	 0.183534
8.69427	 0.695337	 0.224666
8.70536	 0.728419	 0.256267
8.71647	 0.767664	 0.244295
8.72762	 0.778269	 0.208853
8.7388	 0.760752	 0.180645
8.75	 0.739049	 0.16567
8.76123	 0.711765	 0.154382
8.77249	 0.683948	 0.151711
8.78378	 0.655119	 0.15239
8.7951	 0.630147	 0.155919
8.80645	 0.598685	 0.15904
8.81783	 0.571919	 0.17036
8.82924	 0.542293	 0.177864
8.84067	 0.516589	 0.191635
8.85214	 0.485011	 0.19735
8.86364	 0.44969	 0.214834
8.87516	 0.414139	 0.230646
8.88672	 0.375554	 0.255204
8.8983	 0.334097	 0.283698
8.90992	 0.296844	 0.326955
8.92157	 0.265497	 0.372517
8.93325	 0.245045	 0.426656
8.94495	 0.230085	 0.473534
8.95669	 0.221422	 0.525677
8.96846	 0.215551	 0.56902
8.98026	 0.213291	 0.617147
8.9921	 0.21146	 0.656469
9.00396	 0.2112 	 0.702426
9.01585	 0.21219	 0.741382
9.02778	 0.215921	 0.786206
9.03974	 0.219472	 0.823026
9.05172	 0.224928	 0.866487
9.06374	 0.229668	 0.902516
9.0758	 0.236321	 0.946218
9.08788	 0.242549	 0.983452
9.1	 0.2526 	 1.02791
9.11215	 0.260601	 1.06473
9.12433	 0.272818	 1.11027
9.13655	 0.282524	 1.14763
9.14879	 0.297006	 1.19517
9.16107	 0.309206	 1.2344
9.17339	 0.327883	 1.28394
9.18573	 0.341286	 1.32407
9.19811	 0.363933	 1.38057
9.21053	 0.386077	 1.42242
9.22297	 0.413212	 1.47986
9.23545	 0.440304	 1.52594
9.24797	 0.47686	 1.58995
9.26052	 0.517998	 1.63837
9.2731	 0.5664 	 1.701
9.28571	 0.618633	 1.75258
9.29836	 0.688782	 1.81812
9.31105	 0.766877	 1.86286
9.32377	 0.862966	 1.91124
9.33653	 0.960491	 1.93294
9.34932	 1.07457	 1.9492
9.36214	 1.1754 	 1.93299
9.375	 1.28027	 1.91017
9.3879	 1.35704	 1.86896
9.40083	 1.44055	 1.8323
9.41379	 1.49756	 1.78804
9.4268	 1.5764 	 1.75564
9.43983	 1.64864	 1.69908
9.45291	 1.7248 	 1.61916
9.46602	 1.75178	 1.5209
9.47917	 1.75717	 1.43565
9.49235	 1.72898	 1.37718
9.50557	 1.7088 	 1.35386
9.51883	 1.7064 	 1.36604
9.53212	 1.76021	 1.36599
9.54545	 1.81773	 1.34194
9.55882	 1.89636	 1.2763
9.57223	 1.93112	 1.17967
9.58567	 1.94063	 1.07502
9.59916	 1.91742	 0.989972
9.61268	 1.88814	 0.904222
9.62623	 1.83605	 0.848915
9.63983	 1.79805	 0.793771
9.65347	 1.74118	 0.755968
9.66714	 1.69864	 0.722628
9.68085	 1.64663	 0.699622
9.6946	 1.60428	 0.672934
9.70839	 1.5445 	 0.659583
9.72222	 1.50249	 0.650542
9.73609	 1.44437	 0.641191
9.75	 1.39262	 0.6432
9.76395	 1.32847	 0.647962
9.77794	 1.26511	 0.672939
9.79197	 1.1994 	 0.712482
9.80603	 1.14683	 0.781268
9.82014	 1.11949	 0.863876
9.83429	 1.12321	 0.954633
9.84848	 1.15796	 1.03919
9.86272	 1.23079	 1.10769
9.87699	 1.3246 	 1.13372
9.8913	 1.42211	 1.11551
9.90566	 1.49477	 1.05748
9.92006	 1.54062	 0.973739
9.9345	 1.53944	 0.882849
9.94898	 1.51377	 0.802627
9.9635	 1.45822	 0.737916
9.97807	 1.39871	 0.69698
9.99268	 1.3333 	 0.663369
10.0073	 1.26065	 0.641552
10.022	 1.18178	 0.63148
10.0368	 1.09779	 0.63222
10.0515	 1.0052 	 0.649228
10.0664	 0.913209	 0.685357
10.0812	 0.819924	 0.740328
10.0962	 0.736651	 0.82117
10.1111	 0.671955	 0.918333
10.1261	 0.629658	 1.02372
10.1412	 0.602059	 1.12919
10.1563	 0.59285	 1.2364
10.1714	 0.592713	 1.33529
10.1866	 0.602303	 1.43439
10.2018	 0.615827	 1.52819
10.2171	 0.640507	 1.62413
10.2324	 0.666503	 1.71242
10.2478	 0.701975	 1.8044
10.2632	 0.736026	 1.89053
10.2786	 0.782527	 1.98313
10.2941	 0.825359	 2.06878
10.3097	 0.883159	 2.16719
10.3253	 0.942192	 2.25768
10.3409	 1.0207 	 2.3601
10.3566	 1.10219	 2.4519
10.3723	 1.20658	 2.55352
10.3881	 1.31533	 2.6472
10.404	 1.46525	 2.74474
10.4199	 1.61694	 2.81693
10.4358	 1.81705	 2.88671
10.4518	 2.0201 	 2.90205
10.4678	 2.2419 	 2.88957
10.4839	 2.4479 	 2.83565
10.5	 2.65611	 2.7213
10.5162	 2.78198	 2.59663
10.5324	 2.91668	 2.46023
10.5487	 2.9753 	 2.3319
10.565	 3.05671	 2.22352
10.5814	 3.09918	 2.11625
10.5978	 3.1496 	 2.02852
10.6143	 3.20635	 1.96475
10.6308	 3.289  	 1.86078
10.6474	 3.34394	 1.77729
10.6641	 3.43397	 1.64642
10.6807	 3.46673	 1.51848
10.6975	 3.51552	 1.3668
10.7143	 3.5082 	 1.21802
10.7311	 3.48872	 1.07138
10.748	 3.44512	 0.957389
10.765	 3.39573	 0.837519
10.782	 3.33637	 0.763842
10.7991	 3.29019	 0.669274
10.8162	 3.22255	 0.610267
10.8333	 3.17216	 0.544184
10.8506	 3.11344	 0.502729
10.8678	 3.06861	 0.444644
10.8852	 2.99909	 0.407587
10.9026	 2.94711	 0.387546
10.92	 2.91655	 0.37007
10.9375	 2.87807	 0.32369
10.9551	 2.81953	 0.303988
10.9727	 2.77686	 0.29675
10.9903	 2.75609	 0.288026
11.0081	 2.71986	 0.255228
11.0259	 2.68102	 0.250818
11.0437	 2.65187	 0.2336
11.0616	 2.6197 	 0.225419
11.0795	 2.58477	 0.214161
11.0976	 2.56355	 0.21738
11.1156	 2.53908	 0.197405
11.1338	 2.50937	 0.195629
11.152	 2.47853	 0.18758
11.1702	 2.46224	 0.199598
11.1885	 2.44608	 0.177226
11.2069	 2.41296	 0.184529
11.2253	 2.40224	 0.17693
11.2438	 2.36938	 0.17563
11.2624	 2.34937	 0.184982
11.281	 2.33464	 0.195969
11.2997	 2.32699	 0.203731
11.3184	 2.32446	 0.21201
11.3372	 2.32831	 0.2133
11.3561	 2.33846	 0.204042
11.375	 2.33349	 0.17974
11.394	 2.3199 	 0.16072
11.413	 2.29047	 0.152631
11.4322	 2.29089	 0.1596
11.4513	 2.27787	 0.131203
11.4706	 2.25119	 0.13167
11.4899	 2.23508	 0.13093
11.5093	 2.22767	 0.135098
11.5287	 2.21542	 0.12599
11.5482	 2.2066 	 0.12671
11.5678	 2.18946	 0.117831
11.5874	 2.18186	 0.123678
11.6071	 2.16468	 0.114771
11.6269	 2.16136	 0.128457
11.6468	 2.15434	 0.110501
11.6667	 2.14196	 0.118447
11.6866	 2.13241	 0.103643
11.7067	 2.1146 	 0.11596
11.7268	 2.11132	 0.112351
11.747	 2.10509	 0.123059
11.7672	 2.10822	 0.110201
11.7876	 2.09693	 0.111357
11.808	 2.09291	 0.09776
11.8284	 2.07546	 0.102679
11.849	 2.07434	 0.09728
11.8696	 2.06315	 0.099348
11.8902	 2.06053	 0.088582
11.911	 2.04073	 0.09101
11.9318	 2.03931	 0.09303
11.9527	 2.03145	 0.09164
11.9737	 2.02337	 0.088431
11.9947	 2.01986	 0.096938
12.0158	 2.02419	 0.078574
12.037	 1.99577	 0.076342
12.0583	 1.99551	 0.087448
12.0796	 1.99122	 0.08242
12.1011	 1.98821	 0.08219
12.1226	 1.98316	 0.07109
12.1441	 1.96285	 0.069061
12.1658	 1.95901	 0.081029
12.1875	 1.96056	 0.07441
12.2093	 1.95096	 0.068861
12.2312	 1.93909	 0.06813
12.2531	 1.93456	 0.07117
12.2752	 1.92665	 0.06763
12.2973	 1.92045	 0.0672
12.3195	 1.90412	 0.069909
12.3418	 1.91552	 0.082669
12.3641	 1.90836	 0.054551
12.3866	 1.88371	 0.06943
12.4091	 1.88857	 0.07318
12.4317	 1.88294	 0.07546
12.4544	 1.88354	 0.07333
12.4771	 1.88164	 0.070959
12.5	 1.87418	 0.06124
12.5229	 1.86676	 0.061828
12.546	 1.85095	 0.052973
12.5691	 1.84143	 0.072139
12.5922	 1.84634	 0.06368
12.6155	 1.83395	 0.070949
12.6389	 1.83816	 0.06437
12.6623	 1.82272	 0.06767
12.6859	 1.82553	 0.06816
12.7095	 1.8169 	 0.06984
12.7332	 1.81904	 0.06545
12.757	 1.80696	 0.0671
12.7809	 1.81287	 0.06237
12.8049	 1.79133	 0.055551
12.8289	 1.79016	 0.070139
12.8531	 1.79041	 0.06187
12.8774	 1.78237	 0.06234
12.9017	 1.77733	 0.05558
12.9261	 1.75818	 0.058752
12.9507	 1.75842	 0.072168
12.9753	 1.75816	 0.069101
13	 1.75642	 0.07181
13.0248	 1.75251	 0.0665
13.0497	 1.75118	 0.070219
13.0747	 1.74788	 0.053862
13.0998	 1.7233 	 0.058871
13.125	 1.72695	 0.07185
13.1503	 1.72523	 0.05949
13.1757	 1.70069	 0.066504
13.2012	 1.711  	 0.09097
13.2267	 1.7252 	 0.075053
13.2524	 1.71597	 0.066189
13.2782	 1.70539	 0.05909
13.3041	 1.69591	 0.06313
13.3301	 1.68521	 0.059741
13.3562	 1.68094	 0.076397
13.3823	 1.69105	 0.060232
13.4086	 1.66157	 0.05747
13.435	 1.66029	 0.07653
13.4615	 1.66714	 0.07302
13.4881	 1.65567	 0.063441
13.5148	 1.64228	 0.076749
13.5417	 1.65363	 0.082038
13.5686	 1.65084	 0.06831
13.5956	 1.63651	 0.06796
13.6228	 1.63338	 0.071829
13.65	 1.62603	 0.07092
13.6774	 1.62832	 0.07245
13.7048	 1.61428	 0.058261
13.7324	 1.60108	 0.073128
13.7601	 1.60268	 0.0684
13.7879	 1.58822	 0.07304
13.8158	 1.58853	 0.07763
13.8438	 1.58598	 0.07533
13.872	 1.57494	 0.07108
13.9002	 1.57117	 0.079309
13.9286	 1.56567	 0.066851
13.9571	 1.54741	 0.074141
13.9857	 1.54109	 0.078102
14.0144	 1.53859	 0.088499
14.0432	 1.53429	 0.07743
14.0722	 1.52278	 0.092697
14.1012	 1.52881	 0.0757
14.1304	 1.49583	 0.085888
14.1597	 1.51172	 0.09471
14.1892	 1.49176	 0.07828
14.2188	 1.47495	 0.08962
14.2484	 1.46634	 0.101608
14.2782	 1.46747	 0.1019
14.3082	 1.4513 	 0.10522
14.3382	 1.44831	 0.107721
14.3684	 1.42955	 0.11647
14.3987	 1.4375 	 0.11945
14.4292	 1.40815	 0.115853
14.4598	 1.41368	 0.136807
14.4904	 1.39377	 0.113993
14.5213	 1.36267	 0.142372
14.5522	 1.36007	 0.159091
14.5833	 1.35441	 0.175198
14.6146	 1.3446 	 0.17464
14.6459	 1.31484	 0.202757
14.6774	 1.32104	 0.24323
14.7091	 1.33648	 0.265678
14.7408	 1.35839	 0.27702
14.7727	 1.37181	 0.274399
14.8048	 1.3765 	 0.2686
14.837	 1.37395	 0.27354
14.8693	 1.39125	 0.27035
14.9017	 1.38227	 0.25069
14.9344	 1.37906	 0.24905
14.9671	 1.36281	 0.225493
15	 1.3405 	 0.23046
15.033	 1.32236	 0.20257
15.0662	 1.25096	 0.209727
15.0996	 1.22279	 0.255341
15.133	 1.20181	 0.269662
15.1667	 1.16431	 0.300063
15.2004	 1.13291	 0.333415
15.2344	 1.0887 	 0.382844
15.2685	 1.05841	 0.45673
15.3027	 1.04092	 0.542279
15.3371	 1.04361	 0.644864
15.3716	 1.07398	 0.759614
15.4063	 1.15098	 0.874667
15.4412	 1.26119	 0.962705
15.4762	 1.40665	 1.02834
15.5114	 1.58105	 1.02789
15.5467	 1.7303 	 0.968421
15.5822	 1.85151	 0.865495
15.6179	 1.90873	 0.741618
15.6537	 1.94057	 0.633311
15.6897	 1.93108	 0.515761
15.7258	 1.88852	 0.441524
15.7621	 1.8501 	 0.392826
15.7986	 1.81858	 0.364891
15.8353	 1.80229	 0.332407
15.8721	 1.76635	 0.300603
15.9091	 1.74387	 0.29712
15.9463	 1.73794	 0.270692
15.9836	 1.71004	 0.248008
16.0211	 1.69121	 0.228008
16.0588	 1.65404	 0.210492
16.0967	 1.62763	 0.21227
16.1348	 1.60427	 0.20682
16.173	 1.57715	 0.213631
16.2114	 1.56761	 0.228969
16.25	 1.57198	 0.22865
16.2888	 1.57094	 0.216211
16.3277	 1.55674	 0.188141
16.3669	 1.51086	 0.189372
16.4063	 1.51476	 0.21613
16.4458	 1.51629	 0.183483
16.4855	 1.47812	 0.18512
16.5254	 1.47834	 0.1893
16.5655	 1.45573	 0.178231
16.6058	 1.4521 	 0.185919
16.6463	 1.43949	 0.153891
16.687	 1.39606	 0.15173
16.7279	 1.37214	 0.15862
16.769	 1.34884	 0.168449
16.8104	 1.33593	 0.16979
16.8519	 1.30831	 0.17318
16.8936	 1.29557	 0.180329
16.9355	 1.26959	 0.174491
16.9776	 1.24035	 0.18388
17.02	 1.21581	 0.19324
17.0625	 1.19423	 0.20065
17.1053	 1.16078	 0.20426
17.1482	 1.12882	 0.22536
17.1914	 1.10529	 0.235802
17.2348	 1.06463	 0.252031
17.2785	 1.0345 	 0.281929
17.3223	 1.00763	 0.303652
17.3664	 0.974092	 0.326109
17.4107	 0.932965	 0.353204
17.4552	 0.888982	 0.392068
17.5	 0.843229	 0.438201
17.545	 0.793717	 0.500416
17.5902	 0.748197	 0.581849
17.6357	 0.71586	 0.687902
17.6814	 0.711001	 0.806316
17.7273	 0.726499	 0.931181
17.7734	 0.771886	 1.06314
17.8198	 0.849605	 1.19222
17.8665	 0.966905	 1.31024
17.9134	 1.11962	 1.39851
17.9605	 1.30408	 1.44762
18.0079	 1.5071 	 1.43366
18.0556	 1.70002	 1.3465
18.1035	 1.83578	 1.18614
18.1516	 1.87895	 1.01261
18.2	 1.86437	 0.873079
18.2487	 1.81878	 0.767307
18.2976	 1.75595	 0.703148
18.3468	 1.70258	 0.673753
18.3962	 1.66131	 0.66085
18.4459	 1.6357 	 0.66419
18.4959	 1.63848	 0.66292
18.5462	 1.6425 	 0.633807
18.5967	 1.62718	 0.59796
18.6475	 1.59672	 0.566761
18.6986	 1.55958	 0.54813
18.75	 1.51648	 0.53383
18.8016	 1.46761	 0.53731
18.8536	 1.42162	 0.54512
18.9058	 1.36028	 0.573164
18.9583	 1.31341	 0.633056
19.0111	 1.28175	 0.714187
19.0643	 1.29463	 0.829707
19.1176	 1.38122	 0.925551
19.1714	 1.50713	 0.95977
19.2253	 1.6219 	 0.916731
19.2797	 1.67977	 0.84286
19.3343	 1.7037 	 0.777817
19.3892	 1.71286	 0.717275
19.4444	 1.70189	 0.662825
19.5	 1.68246	 0.62325
19.5559	 1.66068	 0.593312
19.6121	 1.6393 	 0.56662
19.6686	 1.6091 	 0.54568
19.7254	 1.58127	 0.535391
19.7826	 1.55012	 0.52928
19.8401	 1.52363	 0.539491
19.898	 1.51105	 0.55132
19.9561	 1.50737	 0.56642
20.0147	 1.52834	 0.56624
20.0735	 1.52669	 0.53201
20.1327	 1.50522	 0.5221
20.1923	 1.49818	 0.506309
20.2522	 1.47115	 0.49044
20.3125	 1.45179	 0.48872
20.3731	 1.43618	 0.478711
20.4341	 1.41179	 0.46788
20.4955	 1.38832	 0.464559
20.5572	 1.36266	 0.45534
20.6193	 1.33607	 0.460749
20.6818	 1.32326	 0.44601
20.7447	 1.27754	 0.43463
20.8079	 1.24786	 0.43807
20.8716	 1.20514	 0.43101
20.9356	 1.16833	 0.43866
21	 1.12188	 0.42899
21.0648	 1.06157	 0.443159
21.13	 1.01442	 0.4544
21.1957	 0.946833	 0.46262
21.2617	 0.865602	 0.488299
21.3281	 0.776977	 0.538426
21.395	 0.694626	 0.613775
21.4623	 0.624675	 0.716443
21.53	 0.588359	 0.829683
21.5981	 0.562301	 0.941088
21.6667	 0.56134	 1.05697
21.7357	 0.56329	 1.15976
21.8051	 0.5734 	 1.27322
21.875	 0.59027	 1.38907
21.9453	 0.627791	 1.51839
22.0161	 0.680572	 1.64855
22.0874	 0.768232	 1.79129
22.1591	 0.890887	 1.92663
22.2313	 1.0784 	 2.04572
22.3039	 1.30804	 2.10125
22.3771	 1.58276	 2.05683
22.4507	 1.78135	 1.88126
22.5247	 1.87311	 1.63997
22.5993	 1.76877	 1.41671
22.6744	 1.57582	 1.37338
22.75	 1.43299	 1.49282
22.8261	 1.43539	 1.70472
22.9027	 1.59839	 1.88603
22.9798	 1.89029	 1.95836
23.0574	 2.21873	 1.79816
23.1356	 2.34722	 1.44754
23.2143	 2.23104	 1.15112
23.2935	 2.01737	 1.01135
23.3733	 1.80224	 1.01477
23.4536	 1.6476 	 1.13076
23.5345	 1.60114	 1.31135
23.6159	 1.6728 	 1.47692
23.6979	 1.82262	 1.58889
23.7805	 2.03504	 1.60333
23.8636	 2.21681	 1.50558
23.9474	 2.34096	 1.34702
24.0317	 2.38416	 1.15777
24.1166	 2.35623	 0.986677
24.2021	 2.29265	 0.853038
24.2883	 2.20384	 0.743157
24.375	 2.10498	 0.67516
24.4624	 2.00403	 0.614989
24.5504	 1.87898	 0.5969
24.639	 1.77723	 0.623001
24.7283	 1.71104	 0.682469
24.8182	 1.72224	 0.726489
24.9088	 1.72982	 0.689939
25	 1.69261	 0.63931
25.0919	 1.61395	 0.595691
25.1845	 1.52848	 0.59449
25.2778	 1.45538	 0.59266
25.3717	 1.36959	 0.60106
25.4664	 1.28683	 0.6172
25.5618	 1.19062	 0.642531
25.6579	 1.09412	 0.689708
25.7547	 0.997818	 0.750842
25.8523	 0.903502	 0.835948
25.9506	 0.82287	 0.94456
26.0496	 0.76723	 1.07182
26.1494	 0.737199	 1.19836
26.25	 0.71872	 1.32671
26.3514	 0.71898	 1.46035
26.4535	 0.73904	 1.59621
26.5564	 0.787239	 1.72905
26.6602	 0.856983	 1.84289
26.7647	 0.935994	 1.94423
26.8701	 1.03361	 2.03626
26.9763	 1.15572	 2.11394
27.0833	 1.32668	 2.15627
27.1912	 1.52938	 2.07993
27.3	 1.61119	 1.85073
27.4096	 1.4651 	 1.65199
27.5202	 1.21861	 1.63841
27.6316	 1.02799	 1.79531
27.7439	 0.962901	 2.00831
27.8571	 0.97052	 2.20742
27.9713	 1.03423	 2.38493
28.0864	 1.11385	 2.53442
28.2025	 1.22245	 2.67495
28.3195	 1.3413 	 2.8031
28.4375	 1.51838	 2.92717
28.5565	 1.72659	 2.98863
28.6765	 1.972  	 2.99426
28.7975	 2.2125 	 2.86711
28.9195	 2.33772	 2.61882
29.0425	 2.26438	 2.34681
29.1667	 1.9923 	 2.20187
29.2918	 1.67648	 2.31456
29.4181	 1.49561	 2.59269
29.5455	 1.43591	 2.92912
29.6739	 1.51471	 3.28081
29.8035	 1.65325	 3.60486
29.9342	 1.90648	 3.94137
30.0661	 2.21678	 4.23505
30.1991	 2.7074 	 4.51699
30.3333	 3.26162	 4.62594
30.4688	 3.9451 	 4.58959
30.6054	 4.48606	 4.32947
30.7432	 5.12073	 4.02593
30.8824	 5.63575	 3.32812
31.0227	 5.75005	 2.47705
31.1644	 5.48112	 1.80661
31.3073	 5.03817	 1.40668
31.4516	 4.63798	 1.37745
31.5972	 4.48452	 1.47037
31.7442	 4.55245	 1.55257
31.8925	 4.71115	 1.3539
32.0423	 4.65988	 1.11464
32.1934	 4.56204	 0.894667
32.346	 4.40608	 0.767402
32.5	 4.25695	 0.63667
32.6555	 4.08044	 0.6176
32.8125	 3.96006	 0.5726
32.971	 3.7813 	 0.640813
33.1311	 3.78076	 0.76806
33.2927	 3.87927	 0.79169
33.4559	 3.94991	 0.636933
33.6207	 3.8426 	 0.516321
33.7871	 3.74765	 0.43735
33.9552	 3.56206	 0.416721
34.125	 3.40414	 0.531709
34.2965	 3.37746	 0.788978
34.4697	 3.68763	 0.948196
34.6447	 3.9226 	 0.697512
34.8214	 3.89323	 0.471521
35	 3.7902 	 0.32432
35.1804	 3.67852	 0.261521
35.3627	 3.57857	 0.22165
35.5469	 3.47458	 0.23574
35.733	 3.44179	 0.276859
35.9211	 3.41851	 0.28412
36.1111	 3.44384	 0.3041
36.3032	 3.44287	 0.20969
36.4973	 3.36023	 0.20743
36.6936	 3.35629	 0.19935
36.8919	 3.32025	 0.18604
37.0924	 3.30939	 0.16302
37.2951	 3.27714	 0.14469
37.5	 3.25048	 0.09618
37.7072	 3.16504	 0.0918
37.9167	 3.13229	 0.109381
38.1285	 3.08705	 0.13715
38.3427	 3.10674	 0.16357
38.5593	 3.09733	 0.13803
38.7784	 3.08704	 0.14002
39	 3.08478	 0.10434
39.2241	 3.01984	 0.08076
39.4509	 3.00192	 0.129469
39.6802	 3.03056	 0.087401
39.9123	 2.9616 	 0.05004
40.1471	 2.90853	 0.06418
40.3846	 2.87033	 0.102159
40.625	 2.88182	 0.12435
40.8683	 2.86908	 0.11113
41.1145	 2.83867	 0.11761
41.3636	 2.83145	 0.14279
41.6158	 2.83186	 0.12647
41.8712	 2.79097	 0.13668
42.1296	 2.79425	 0.16185
42.3913	 2.79352	 0.15042
42.6563	 2.75286	 0.15153
42.9245	 2.74907	 0.20976
43.1962	 2.7943 	 0.20428
43.4713	 2.7967 	 0.186839
43.75	 2.79364	 0.15153
44.0323	 2.76148	 0.15157
44.3182	 2.75031	 0.13213
44.6078	 2.71145	 0.15985
44.9013	 2.74598	 0.15081
45.1987	 2.70561	 0.12669
45.5	 2.70226	 0.11444
45.8054	 2.6352 	 0.10071
46.1149	 2.62345	 0.13344
46.4286	 2.59165	 0.11716
46.7466	 2.56346	 0.14215
47.069	 2.54774	 0.11477
47.3958	 2.44131	 0.09712
47.7273	 2.34587	 0.180299
48.0634	 2.29548	 0.24008
48.4043	 2.17522	 0.351442
48.75	 2.12237	 0.589249
49.1007	 2.21133	 0.894911
49.4565	 2.58837	 1.13393
49.8175	 2.98033	 0.961029
50.1838	 3.13478	 0.690122
50.5555	 3.03997	 0.439683
50.9328	 2.95831	 0.417119
51.3158	 2.90397	 0.32645
51.7045	 2.75976	 0.36204
52.0992	 2.74254	 0.507851
52.5	 2.86497	 0.59864
52.907	 3.0005 	 0.584189
53.3203	 3.14416	 0.47958
53.7402	 3.11896	 0.30123
54.1667	 3.07357	 0.259049
54.6	 3.03042	 0.18146
55.0403	 2.96268	 0.18664
55.4878	 2.955  	 0.18997
55.9426	 2.95385	 0.19161
56.405	 2.9833 	 0.14984
56.875	 2.92572	 0.07602
57.3529	 2.86042	 0.11206
57.839	 2.88172	 0.11753
58.3333	 2.85299	 0.10325
58.8362	 2.85917	 0.09943
59.3478	 2.81574	 0.07788
59.8684	 2.80397	 0.1124
60.3982	 2.81394	 0.10987
60.9375	 2.81561	 0.09849
61.4865	 2.80139	 0.09144
62.0454	 2.80582	 0.07419
62.6147	 2.75423	 0.06249
63.1944	 2.75101	 0.10483
63.785	 2.76224	 0.10879
64.3868	 2.79141	 0.10564
65	 2.7781 	 0.06129
65.625	 2.75568	 0.06536
66.2621	 2.74224	 0.06289
66.9118	 2.74442	 0.06659
67.5743	 2.72988	 0.04913
68.25	 2.7088 	 0.04267
68.9394	 2.65737	 0.0744
69.6429	 2.71453	 0.13531
70.3608	 2.73338	 0.0728
71.0938	 2.71856	 0.08992
71.8421	 2.72554	 0.0645
72.6064	 2.72627	 0.07126
73.3871	 2.71188	 0.02093
74.1848	 2.66721	 0.05293
75	 2.66947	 0.05767
75.8333	 2.67484	 0.10014
76.6854	 2.71334	 0.04383
77.5568	 2.63175	 0.06368
78.4483	 2.68855	 0.12198
79.3605	 2.73012	 0.08114
80.2941	 2.72249	 0.01604
81.25	 2.64326	 0.03251
82.2289	 2.69617	 0.07055
83.2317	 2.66517	 0.00463
84.2593	 2.63057	 0.06427
85.3125	 2.67078	 0.07335
86.3924	 2.68673	 0.06477
87.5	 2.70299	 0.03682
88.6364	 2.7017 	 0.00925
89.8026	 2.61789	 0.05561
91	 2.55262	 0.03799
92.2297	 2.6144 	 0.08421
93.4931	 2.62407	 0.08043
94.7917	 2.66572	 0.09003
96.1268	 2.67936	 0.05475
97.5	 2.69201	 0.03487
98.913	 2.66821	 0.01371
