  2.2999991E+02  4.7450319E-02
  2.3399988E+02  1.0767781E-01
  2.4000005E+02  2.1987008E-01
  2.4649992E+02  4.8071957E-01
  2.5240005E+02  9.4831890E-01
  2.5680002E+02  1.4437691E+00
  2.6000000E+02  2.5461252E+00
  2.6399988E+02  4.1445465E+00
  2.6849988E+02  6.7492280E+00
  2.7350006E+02  1.0824658E+01
  2.7850003E+02  1.6600311E+01
  2.8400006E+02  3.5730312E+01
  2.9000003E+02  5.9260216E+01
  2.9599982E+02  9.3826889E+01
  3.0099994E+02  1.3372153E+02
  3.0799994E+02  2.7437360E+02
  3.1799994E+02  6.5841937E+02
  3.2799997E+02  1.2032582E+03
  3.3799994E+02  2.3728716E+03
  3.4799997E+02  4.2966011E+03
  3.5699994E+02  1.7665561E+04
  3.6599994E+02  4.0915273E+04
  3.7499994E+02  5.6150984E+04
  3.8499994E+02  9.2002430E+04
  3.9499991E+02  2.1184406E+05
  4.0499994E+02  2.9259156E+05
  4.1399994E+02  4.3746556E+05
  4.2199991E+02  5.4759112E+05
  4.2999991E+02  7.2417688E+05
  4.4099991E+02  1.0111698E+06
  4.5099994E+02  1.2412086E+06
  4.5999997E+02  1.4900190E+06
  4.6999994E+02  1.9893661E+06
  4.7999994E+02  2.5578312E+06
  4.8999994E+02  3.2057672E+06
  4.9999991E+02  4.0062642E+06
  5.0599994E+02  1.5371682E+07
  5.1199994E+02  1.3186006E+08
  5.2000000E+02  1.3395406E+08
  5.2999994E+02  1.2628730E+08
  5.3999994E+02  1.0916390E+08
  5.4999988E+02  1.6966894E+08
  5.5999988E+02  2.2363002E+08
  5.6999988E+02  2.4391053E+08
  5.7999994E+02  2.1413392E+08
  5.8999988E+02  2.5465928E+08
  5.9999988E+02  2.1267771E+08
  6.0999988E+02  2.8657504E+08
  6.1999994E+02  3.4047434E+08
  6.2999988E+02  3.5192829E+08
  6.3999994E+02  3.4046013E+08
  6.4999994E+02  3.7701037E+08
  6.5799994E+02  3.5039421E+08
  6.6499988E+02  3.8457238E+08
  6.7499994E+02  3.9584406E+08
  6.8499988E+02  3.1674826E+08
  6.9499994E+02  4.5963648E+08
  7.0499988E+02  3.3507757E+08
  7.1599988E+02  5.1005142E+08
  7.2599994E+02  5.0296803E+08
  7.3499982E+02  5.1141434E+08
  7.4499994E+02  5.4375437E+08
  7.5499982E+02  5.5481677E+08
  7.6499994E+02  5.5257798E+08
  7.7499994E+02  6.1134400E+08
  7.8499982E+02  6.4971379E+08
  7.9499982E+02  6.5439942E+08
  8.0500000E+02  6.4294202E+08
  8.1499976E+02  6.3912282E+08
  8.2500000E+02  6.9122003E+08
  8.3499994E+02  4.5660710E+08
  8.4499994E+02  6.7092864E+08
  8.5499988E+02  6.7163187E+08
  8.6499994E+02  7.0691795E+08
  8.7499982E+02  7.3229594E+08
  8.8499982E+02  7.7685376E+08
  8.9499988E+02  7.9713696E+08
  9.0499994E+02  7.7712883E+08
  9.1499982E+02  1.6180982E+09
  9.2499988E+02  5.9625016E+09
  9.3499982E+02  8.4787825E+09
  9.4500000E+02  9.0898657E+09
  9.5500000E+02  9.1045642E+09
  9.6499988E+02  8.7766129E+09
  9.7499982E+02  2.3202097E+09
  9.8499976E+02  5.2069376E+09
  9.9499988E+02  5.8936325E+09
  1.0049999E+03  8.0579241E+09
  1.0149997E+03  8.5226711E+09
  1.0249998E+03  7.8278057E+09
  1.0349998E+03  7.8058988E+09
  1.0449998E+03  9.7277317E+09
  1.0549999E+03  9.1201249E+09
  1.0649999E+03  7.5957222E+09
  1.0750000E+03  8.0583741E+09
  1.0849996E+03  7.8342257E+09
  1.0949999E+03  8.5302927E+09
  1.1049999E+03  8.1874427E+09
  1.1149999E+03  8.0486676E+09
  1.1249999E+03  6.6101325E+09
  1.1349996E+03  7.9097559E+09
  1.1449999E+03  7.5439790E+09
  1.1549999E+03  7.4421386E+09
  1.1650000E+03  7.1559731E+09
  1.1749995E+03  3.9317010E+09
  1.1849996E+03  6.5961359E+09
  1.1949998E+03  6.5349903E+09
  1.2049996E+03  5.9851382E+09
  1.2149998E+03  5.7702088E+09
  1.2249996E+03  6.3465288E+09
  1.2349996E+03  6.7450742E+09
  1.2449998E+03  6.6066719E+09
  1.2549996E+03  6.4811740E+09
  1.2650000E+03  6.6458107E+09
  1.2749998E+03  6.8171259E+09
  1.2849995E+03  6.7918326E+09
  1.2949998E+03  6.2430013E+09
  1.3049995E+03  6.3185183E+09
  1.3149998E+03  6.7087017E+09
  1.3249998E+03  6.4241485E+09
  1.3349996E+03  6.2329923E+09
  1.3449995E+03  6.2947753E+09
  1.3549996E+03  6.1935836E+09
  1.3649999E+03  5.9642112E+09
  1.3749999E+03  5.7780029E+09
  1.3849996E+03  5.5217024E+09
  1.3949999E+03  3.3686868E+09
  1.4050001E+03  3.4937917E+09
  1.4149998E+03  5.2279997E+09
  1.4249998E+03  4.9095091E+09
  1.4350000E+03  5.1854280E+09
  1.4419998E+03  5.2067195E+09
  1.4469999E+03  5.1535590E+09
  1.4549994E+03  4.9552650E+09
  1.4650000E+03  4.7337436E+09
  1.4749995E+03  4.8260398E+09
  1.4849996E+03  4.8036214E+09
  1.4949998E+03  4.6781394E+09
  1.5049996E+03  4.4702669E+09
  1.5119995E+03  4.1684319E+09
  1.5169994E+03  4.2709079E+09
  1.5250001E+03  4.1876941E+09
  1.5349994E+03  3.5444677E+09
  1.5449994E+03  2.9496888E+09
  1.5549998E+03  2.9924106E+09
  1.5649999E+03  3.5611694E+09
  1.5750001E+03  3.8424456E+09
  1.5850000E+03  3.8821350E+09
  1.5949996E+03  3.8415772E+09
  1.6049999E+03  3.6876244E+09
  1.6150000E+03  3.5637071E+09
  1.6249996E+03  3.6041782E+09
  1.6350000E+03  3.7345449E+09
  1.6449996E+03  3.7563287E+09
  1.6549999E+03  3.7134351E+09
  1.6649993E+03  3.6882588E+09
  1.6720000E+03  3.4429174E+09
  1.6770001E+03  3.9628370E+09
  1.6849998E+03  3.7616335E+09
  1.6950000E+03  3.6010094E+09
  1.7049995E+03  3.5709816E+09
  1.7150000E+03  3.3839439E+09
  1.7249993E+03  3.3131502E+09
  1.7349994E+03  3.4229425E+09
  1.7449993E+03  3.3694495E+09
  1.7550001E+03  3.3668987E+09
  1.7649998E+03  3.3452549E+09
  1.7749995E+03  3.1893356E+09
  1.7849995E+03  3.2413560E+09
  1.7949999E+03  3.2204874E+09
  1.8050001E+03  3.2449331E+09
  1.8150001E+03  3.0398221E+09
  1.8249994E+03  3.0846241E+09
  1.8349993E+03  3.0528771E+09
  1.8449993E+03  2.8134356E+09
  1.8549998E+03  2.8869640E+09
  1.8650002E+03  2.9169377E+09
  1.8750001E+03  2.9134679E+09
  1.8850000E+03  2.6797053E+09
  1.8950002E+03  2.5354540E+09
  1.9049996E+03  2.6993395E+09
  1.9149999E+03  2.5907796E+09
  1.9249993E+03  2.4474985E+09
  1.9350001E+03  2.6069988E+09
  1.9449993E+03  2.6667057E+09
  1.9550002E+03  2.3956106E+09
  1.9670002E+03  2.5598095E+09
  1.9759990E+03  2.6636959E+09
  1.9839996E+03  2.5087283E+09
  1.9950001E+03  2.4556483E+09
  2.0050002E+03  2.5158121E+09
  2.0149996E+03  2.5161866E+09
  2.0249994E+03  2.5533064E+09
  2.0349995E+03  2.3768282E+09
  2.0449998E+03  2.3811955E+09
  2.0550000E+03  2.1721385E+09
  2.0649993E+03  2.3296707E+09
  2.0739993E+03  2.4572506E+09
  2.0780002E+03  2.2775885E+09
  2.0849993E+03  2.3192586E+09
  2.0950005E+03  2.2009119E+09
  2.1050002E+03  2.2623227E+09
  2.1149990E+03  2.2745731E+09
  2.1250000E+03  2.2766894E+09
  2.1350002E+03  2.2433362E+09
  2.1449998E+03  2.1576236E+09
  2.1550005E+03  2.2068728E+09
  2.1649995E+03  2.1751501E+09
  2.1750002E+03  2.1503012E+09
  2.1849998E+03  2.1181308E+09
  2.1950000E+03  2.1268005E+09
  2.2050000E+03  2.1039279E+09
  2.2149998E+03  2.0728511E+09
  2.2249998E+03  2.0328717E+09
  2.2350005E+03  1.9964989E+09
  2.2449990E+03  1.9941254E+09
  2.2549993E+03  1.9616445E+09
  2.2650000E+03  1.9521673E+09
  2.2750000E+03  1.9340931E+09
  2.2850000E+03  1.9069121E+09
  2.2950002E+03  1.7672253E+09
  2.3050000E+03  1.8503325E+09
  2.3149995E+03  1.8128567E+09
  2.3250000E+03  1.6725772E+09
  2.3349995E+03  1.7604019E+09
  2.3449993E+03  1.7701495E+09
  2.3550000E+03  1.7428657E+09
  2.3649988E+03  1.7236575E+09
  2.3750000E+03  1.6886981E+09
  2.3849990E+03  1.6626991E+09
  2.3950000E+03  1.6462916E+09
  2.4050005E+03  1.6349715E+09
  2.4149993E+03  1.6134833E+09
  2.4249990E+03  1.6032831E+09
  2.4349990E+03  1.5721414E+09
  2.4450000E+03  1.5621348E+09
  2.4549990E+03  1.5495155E+09
  2.4649990E+03  1.5265089E+09
  2.4749993E+03  1.5013951E+09
  2.4850005E+03  1.4475636E+09
  2.4950000E+03  1.0275327E+09
  2.5050005E+03  1.3696945E+09
  2.5129988E+03  1.3778326E+09
  2.5179990E+03  1.4065426E+09
  2.5249998E+03  1.4187476E+09
  2.5350007E+03  1.4106732E+09
  2.5449988E+03  1.3764312E+09
  2.5550000E+03  1.3692955E+09
  2.5649990E+03  1.3603720E+09
  2.5749990E+03  1.3453233E+09
  2.5849993E+03  1.3296943E+09
  2.5949990E+03  1.3136074E+09
  2.6049995E+03  1.3032052E+09
  2.6149998E+03  1.2804379E+09
  2.6249990E+03  1.2700922E+09
  2.6350007E+03  1.2598298E+09
  2.6449995E+03  1.2420609E+09
  2.6549998E+03  1.2306125E+09
  2.6649995E+03  1.2012851E+09
  2.6749988E+03  1.1874442E+09
  2.6849988E+03  1.1887291E+09
  2.6949988E+03  1.1565610E+09
  2.7050000E+03  1.1437306E+09
  2.7150000E+03  1.1354998E+09
  2.7249995E+03  1.1305083E+09
  2.7350007E+03  1.1139352E+09
  2.7450002E+03  1.1067255E+09
  2.7549998E+03  1.0972369E+09
  2.7649983E+03  1.0806730E+09
  2.7750005E+03  1.0786275E+09
  2.7850000E+03  1.0611709E+09
  2.7949993E+03  1.0303665E+09
  2.8049995E+03  1.0344941E+09
  2.8150002E+03  1.0315605E+09
  2.8250007E+03  1.0191161E+09
  2.8350000E+03  9.9499021E+08
  2.8450002E+03  9.9692659E+08
  2.8550005E+03  9.8152506E+08
  2.8650000E+03  9.7297619E+08
  2.8749983E+03  9.6347859E+08
  2.8850000E+03  9.5369773E+08
  2.8949988E+03  9.4265709E+08
  2.9099988E+03  9.2281056E+08
  2.9299983E+03  9.1024173E+08
  2.9499990E+03  8.8545651E+08
  2.9700005E+03  8.6979110E+08
  2.9899980E+03  8.4910112E+08
  3.0099995E+03  8.2246074E+08
  3.0299995E+03  8.1089446E+08
  3.0499995E+03  7.9921178E+08
  3.0699995E+03  7.8591885E+08
  3.0899995E+03  7.5992819E+08
  3.1099995E+03  7.5451258E+08
  3.1299998E+03  7.3546368E+08
  3.1499995E+03  7.2308454E+08
  3.1699995E+03  7.0715136E+08
  3.1899995E+03  6.9302080E+08
  3.2099998E+03  6.7967526E+08
  3.2299993E+03  6.6513517E+08
  3.2499993E+03  6.5546413E+08
  3.2699995E+03  6.3910438E+08
  3.2899995E+03  6.2760205E+08
  3.3099998E+03  6.1555302E+08
  3.3299993E+03  6.0226592E+08
  3.3499995E+03  5.9020211E+08
  3.3699995E+03  5.7954298E+08
  3.3899993E+03  5.7144154E+08
  3.4099993E+03  5.6049888E+08
  3.4299995E+03  5.5003674E+08
  3.4499993E+03  5.3817715E+08
  3.4699998E+03  5.2870458E+08
  3.4899993E+03  5.1856672E+08
  3.5099995E+03  5.0932557E+08
  3.5299995E+03  5.0166506E+08
  3.5499995E+03  4.9197485E+08
  3.5699995E+03  4.8349533E+08
  3.5899995E+03  4.7208451E+08
  3.6099995E+03  4.6348192E+08
  3.6299993E+03  4.5598624E+08
  3.6399993E+03  4.5269686E+08
  3.6499995E+03  4.4837446E+08
  3.6699993E+03  4.3874653E+08
  3.6899995E+03  4.1903130E+08
  3.7099995E+03  4.1817610E+08
  3.7299998E+03  4.1122989E+08
  3.7499993E+03  4.2094266E+08
  3.7699993E+03  4.1280966E+08
  3.7899995E+03  4.1134445E+08
  3.8099993E+03  4.1627309E+08
  3.8299998E+03  3.9069824E+08
  3.8499995E+03  4.0641411E+08
  3.8699995E+03  3.9448973E+08
  3.8899995E+03  3.7328666E+08
  3.9099995E+03  3.8712634E+08
  3.9299993E+03  3.7600650E+08
  3.9499993E+03  3.7135536E+08
  3.9699998E+03  3.4571802E+08
  3.9899995E+03  3.6107702E+08
  4.0099995E+03  3.5468022E+08
  4.0299993E+03  3.4608122E+08
  4.0499993E+03  3.4351965E+08
  4.0699993E+03  3.3219587E+08
  4.0899995E+03  3.2364294E+08
  4.1099995E+03  3.0794970E+08
  4.1299995E+03  3.1762915E+08
  4.1499990E+03  3.1400419E+08
  4.1699990E+03  3.1099248E+08
  4.1899995E+03  3.0598822E+08
  4.2099995E+03  3.0191744E+08
  4.2299995E+03  2.9706525E+08
  4.2499995E+03  2.9062445E+08
  4.2699990E+03  2.8379776E+08
  4.2899995E+03  2.8057786E+08
  4.3100000E+03  2.7438416E+08
  4.3299995E+03  2.6776190E+08
  4.3499995E+03  2.5324546E+08
  4.3699995E+03  2.6248691E+08
  4.3899995E+03  2.5920466E+08
  4.4099995E+03  2.5542842E+08
  4.4299995E+03  2.5301117E+08
  4.4499995E+03  2.4843478E+08
  4.4699995E+03  2.4257365E+08
  4.4899995E+03  2.4147622E+08
  4.5099990E+03  2.3748810E+08
  4.5299995E+03  2.3453666E+08
  4.5499990E+03  2.3029560E+08
  4.5699995E+03  2.2744595E+08
  4.5899990E+03  2.2341344E+08
  4.6099990E+03  2.1989355E+08
  4.6299990E+03  2.1645958E+08
  4.6499990E+03  2.0810170E+08
  4.6699990E+03  2.0971568E+08
  4.6899990E+03  2.0682416E+08
  4.7099995E+03  2.0222261E+08
  4.7299990E+03  2.0230640E+08
  4.7499995E+03  1.9897992E+08
  4.7699995E+03  1.9735171E+08
  4.7899990E+03  1.9437965E+08
  4.8099995E+03  1.9130485E+08
  4.8299995E+03  1.8815088E+08
  4.8499990E+03  1.8471611E+08
  4.8700000E+03  1.7315021E+08
  4.8899990E+03  1.8055810E+08
  4.9099990E+03  1.7783667E+08
  4.9299990E+03  1.7375211E+08
  4.9499995E+03  1.7226766E+08
  4.9699995E+03  1.7093739E+08
  4.9899990E+03  1.6844301E+08
  5.0099995E+03  1.6348893E+08
  5.0299995E+03  1.6353749E+08
  5.0499995E+03  1.6084344E+08
  5.0699995E+03  1.5930638E+08
  5.0899995E+03  1.5702013E+08
  5.1099990E+03  1.5481067E+08
  5.1299995E+03  1.5237104E+08
  5.1499985E+03  1.5034896E+08
  5.1700000E+03  1.4843864E+08
  5.1899990E+03  1.4654893E+08
  5.2099990E+03  1.4465725E+08
  5.2299995E+03  1.4268054E+08
  5.2499995E+03  1.4059485E+08
  5.2699995E+03  1.3861867E+08
  5.2899990E+03  1.3702402E+08
  5.3099995E+03  1.3513890E+08
  5.3299990E+03  1.3344282E+08
  5.3499995E+03  1.3165930E+08
  5.3699995E+03  1.2994022E+08
  5.3899995E+03  1.2810264E+08
  5.4099990E+03  1.2624358E+08
  5.4299990E+03  1.2492894E+08
  5.4499990E+03  1.2327085E+08
  5.4699995E+03  1.2164563E+08
  5.4899995E+03  1.2006466E+08
  5.5099995E+03  1.1857056E+08
  5.5299985E+03  1.1697729E+08
  5.5499990E+03  1.1559066E+08
  5.5699990E+03  1.1404699E+08
  5.5899995E+03  1.1251857E+08
  5.6099990E+03  1.1123002E+08
  5.6299995E+03  1.0982447E+08
  5.6499990E+03  1.0836466E+08
  5.6699990E+03  1.0668766E+08
  5.6899995E+03  1.0469446E+08
  5.7099995E+03  1.0417564E+08
  5.7299990E+03  1.0300777E+08
  5.7499990E+03  1.0140745E+08
  5.7699990E+03  1.0054358E+08
  5.7899995E+03  9.9259952E+07
  5.8099985E+03  9.7938336E+07
  5.8300000E+03  9.6621832E+07
  5.8499990E+03  9.5622432E+07
  5.8699985E+03  9.2890784E+07
  5.8899985E+03  9.2973080E+07
  5.9099995E+03  9.2059888E+07
  5.9299985E+03  9.0829568E+07
  5.9499995E+03  8.9732176E+07
  5.9699990E+03  8.8920016E+07
  5.9899990E+03  8.7662128E+07
  6.0099990E+03  8.6737688E+07
  6.0299995E+03  8.5592704E+07
  6.0499990E+03  8.4637888E+07
  6.0699990E+03  8.3693760E+07
  6.0899995E+03  8.2747224E+07
  6.1099985E+03  8.1734224E+07
  6.1299995E+03  8.0802832E+07
  6.1499985E+03  7.9704304E+07
  6.1699985E+03  7.8797816E+07
  6.1900000E+03  7.7982696E+07
  6.2099995E+03  7.7117392E+07
  6.2299985E+03  7.6187440E+07
  6.2499990E+03  7.5280024E+07
  6.2699985E+03  7.4443656E+07
  6.2900000E+03  7.3616344E+07
  6.3099985E+03  7.2704712E+07
  6.3299995E+03  7.1943712E+07
  6.3499985E+03  7.1068952E+07
  6.3699985E+03  7.0318976E+07
  6.3899995E+03  6.9500608E+07
  6.4099990E+03  6.8694024E+07
  6.4299985E+03  6.7959920E+07
  6.4499985E+03  6.7167272E+07
  6.4699990E+03  6.6288576E+07
  6.4899990E+03  6.5516220E+07
  6.5099985E+03  6.4902080E+07
  6.5299990E+03  6.4147952E+07
  6.5499985E+03  6.3222952E+07
  6.5699985E+03  5.8649192E+07
  6.5899995E+03  6.1803332E+07
  6.6099985E+03  6.1344836E+07
  6.6299990E+03  6.0746120E+07
  6.6499985E+03  6.0012496E+07
  6.6699995E+03  5.9043948E+07
  6.6899990E+03  5.8412804E+07
  6.7099995E+03  5.8099732E+07
  6.7299990E+03  5.7336604E+07
  6.7499995E+03  5.6849940E+07
  6.7699985E+03  5.6289552E+07
  6.7899995E+03  5.5511048E+07
  6.8099995E+03  5.5063936E+07
  6.8300000E+03  5.4466856E+07
  6.8499985E+03  5.3906504E+07
  6.8699985E+03  5.3321228E+07
  6.8899985E+03  5.2658468E+07
  6.9099990E+03  5.2087856E+07
  6.9299995E+03  5.1667784E+07
  6.9499990E+03  5.1122584E+07
  6.9699985E+03  5.0587724E+07
  6.9899985E+03  5.0053220E+07
  7.0099985E+03  4.9531304E+07
  7.0299985E+03  4.8965976E+07
  7.0499990E+03  4.8478636E+07
  7.0699980E+03  4.7441856E+07
  7.0899990E+03  4.7501384E+07
  7.1099990E+03  4.6869208E+07
  7.1299995E+03  4.6410852E+07
  7.1499990E+03  4.6050712E+07
  7.1699995E+03  4.5546896E+07
  7.1899985E+03  4.5110620E+07
  7.2099985E+03  4.4653084E+07
  7.2299980E+03  4.3805340E+07
  7.2499990E+03  4.3659796E+07
  7.2699995E+03  4.3304188E+07
  7.2899990E+03  4.2597568E+07
  7.3099980E+03  4.2425396E+07
  7.3299980E+03  4.1993324E+07
  7.3499980E+03  4.1583080E+07
  7.3699985E+03  4.1172240E+07
  7.3899995E+03  4.0760836E+07
  7.4099985E+03  4.0353292E+07
  7.4299995E+03  3.9953860E+07
  7.4500000E+03  3.9553816E+07
  7.4700000E+03  3.9077972E+07
  7.4899990E+03  3.8739172E+07
  7.5099985E+03  3.8388540E+07
  7.5299995E+03  3.8002992E+07
  7.5499980E+03  3.7652564E+07
  7.5699985E+03  3.7280180E+07
  7.5899990E+03  3.6877884E+07
  7.6099980E+03  3.6510372E+07
  7.6299995E+03  3.6195612E+07
  7.6499995E+03  3.5846772E+07
  7.6699980E+03  3.5511280E+07
  7.6899990E+03  3.5144296E+07
  7.7099995E+03  3.4808880E+07
  7.7299985E+03  3.4464432E+07
  7.7499990E+03  3.4160992E+07
  7.7700000E+03  3.3828432E+07
  7.7900000E+03  3.3520580E+07
  7.8099995E+03  3.3187910E+07
  7.8299980E+03  3.2887550E+07
  7.8499980E+03  3.2589800E+07
  7.8699995E+03  3.2232678E+07
  7.8900000E+03  3.1901882E+07
  7.9099995E+03  3.1639186E+07
  7.9300000E+03  3.1323422E+07
  7.9499985E+03  3.1065470E+07
  7.9699990E+03  3.0756834E+07
  7.9900000E+03  3.0494094E+07
  8.0099980E+03  3.0179414E+07
  8.0299985E+03  2.9915818E+07
  8.0500000E+03  2.9656312E+07
  8.0699985E+03  2.9395344E+07
  8.0899990E+03  2.9088940E+07
  8.1099995E+03  2.8714092E+07
  8.1299976E+03  2.8596590E+07
  8.1499976E+03  2.8297538E+07
  8.1699980E+03  2.8076518E+07
  8.1899985E+03  2.7744690E+07
  8.2099990E+03  2.7371276E+07
  8.2300000E+03  2.7098532E+07
  8.2500000E+03  2.6954972E+07
  8.2700000E+03  2.6572270E+07
  8.2899980E+03  2.6461676E+07
  8.3099990E+03  2.6237206E+07
  8.3299980E+03  2.5969660E+07
  8.3500000E+03  2.5659636E+07
  8.3699990E+03  2.5379688E+07
  8.3899990E+03  2.5187282E+07
  8.4099971E+03  2.4925218E+07
  8.4300000E+03  2.4764882E+07
  8.4499990E+03  2.4515122E+07
  8.4699980E+03  2.4081898E+07
  8.4899980E+03  2.4372844E+07
  8.5099990E+03  2.3576196E+07
  8.5299990E+03  2.4060736E+07
  8.5499990E+03  2.2980462E+07
  8.5699990E+03  2.3828490E+07
  8.5900000E+03  2.2921324E+07
  8.6099980E+03  2.2659682E+07
  8.6299990E+03  2.3280942E+07
  8.6499990E+03  2.2848062E+07
  8.6699990E+03  2.1549476E+07
  8.6899990E+03  2.2666788E+07
  8.7099971E+03  2.2532788E+07
  8.7299990E+03  2.2141714E+07
  8.7499980E+03  2.0739040E+07
  8.7699980E+03  2.1698536E+07
  8.7899980E+03  2.1775288E+07
  8.8099990E+03  2.1580738E+07
  8.8299980E+03  2.1390810E+07
  8.8499980E+03  2.0827258E+07
  8.8699980E+03  1.9712240E+07
  8.8899990E+03  2.0842058E+07
  8.9099971E+03  2.0686672E+07
  8.9299980E+03  2.0496368E+07
  8.9499980E+03  2.0344984E+07
  8.9699990E+03  2.0188778E+07
  8.9899990E+03  1.9812686E+07
  9.0099980E+03  1.8647962E+07
  9.0299990E+03  1.9293414E+07
  9.0499990E+03  1.9521562E+07
  9.0699980E+03  1.9253354E+07
  9.0899990E+03  1.9158564E+07
  9.1099980E+03  1.9041306E+07
  9.1299980E+03  1.8891798E+07
  9.1499980E+03  1.8739116E+07
  9.1699980E+03  1.8556212E+07
  9.1899990E+03  1.8428672E+07
  9.2099990E+03  1.8046186E+07
  9.2299980E+03  1.6815238E+07
  9.2499980E+03  1.7839996E+07
  9.2699971E+03  1.7823110E+07
  9.2899990E+03  1.7685306E+07
  9.3099980E+03  1.7500110E+07
  9.3299990E+03  1.7360412E+07
  9.3499980E+03  1.7234100E+07
  9.3699990E+03  1.7115534E+07
  9.3900000E+03  1.6989654E+07
  9.4099980E+03  1.6844388E+07
  9.4299971E+03  1.6712333E+07
  9.4499990E+03  1.6578549E+07
  9.4700000E+03  1.6397607E+07
  9.4899980E+03  1.6312594E+07
  9.5100000E+03  1.6087586E+07
  9.5300000E+03  1.5824719E+07
  9.5500000E+03  1.4788145E+07
  9.5699990E+03  1.5742468E+07
  9.5899980E+03  1.5692524E+07
  9.6099980E+03  1.5528589E+07
  9.6299990E+03  1.5382688E+07
  9.6499990E+03  1.5326717E+07
  9.6699980E+03  1.5208243E+07
  9.6899980E+03  1.5080396E+07
  9.7100000E+03  1.4837722E+07
  9.7299990E+03  1.4836324E+07
  9.7499980E+03  1.4737678E+07
  9.7699961E+03  1.4623387E+07
  9.7899980E+03  1.4511144E+07
  9.8099980E+03  1.4389730E+07
  9.8299990E+03  1.4290280E+07
  9.8499980E+03  1.4175456E+07
  9.8700000E+03  1.4062665E+07
  9.8899980E+03  1.3942100E+07
  9.9099990E+03  1.3801627E+07
  9.9300000E+03  1.3750947E+07
  9.9499980E+03  1.3647278E+07
  9.9699980E+03  1.3535879E+07
  9.9899990E+03  1.3440879E+07
  1.0024998E+04  1.3069178E+07
  1.0074998E+04  1.2694052E+07
  1.0124997E+04  1.2722227E+07
  1.0174997E+04  1.2538427E+07
  1.0224998E+04  1.2301401E+07
  1.0274997E+04  1.2078610E+07
  1.0325000E+04  1.1828044E+07
  1.0374999E+04  1.1644129E+07
  1.0425000E+04  1.1431188E+07
  1.0474998E+04  1.1226151E+07
  1.0524997E+04  1.1022317E+07
  1.0574999E+04  1.0827182E+07
  1.0625000E+04  1.0634164E+07
  1.0674997E+04  1.0433973E+07
  1.0724998E+04  1.0261432E+07
  1.0774999E+04  1.0080379E+07
  1.0824997E+04  9.8133010E+06
  1.0874997E+04  9.7303690E+06
  1.0924999E+04  9.1952110E+06
  1.0974996E+04  9.3563360E+06
  1.1025000E+04  9.2054590E+06
  1.1074998E+04  9.0772640E+06
  1.1124999E+04  8.9212460E+06
  1.1174998E+04  8.7712070E+06
  1.1224999E+04  8.6191000E+06
  1.1274997E+04  8.4766090E+06
  1.1325000E+04  8.3270280E+06
  1.1375000E+04  8.1920745E+06
  1.1425000E+04  8.0558525E+06
  1.1474997E+04  7.9243335E+06
  1.1525000E+04  7.7950510E+06
  1.1574998E+04  7.6634130E+06
  1.1625000E+04  7.5361355E+06
  1.1674998E+04  7.4084715E+06
  1.1724997E+04  7.2978835E+06
  1.1775001E+04  7.1790360E+06
  1.1824999E+04  7.0626265E+06
  1.1875000E+04  6.9502115E+06
  1.1925000E+04  6.8391770E+06
  1.1975001E+04  6.6951300E+06
  1.2024998E+04  6.6234845E+06
  1.2074996E+04  6.5189890E+06
  1.2125000E+04  6.4154930E+06
  1.2175000E+04  6.3156620E+06
  1.2225001E+04  6.2170045E+06
  1.2275001E+04  6.1206180E+06
  1.2324996E+04  6.0251180E+06
  1.2374996E+04  5.9317385E+06
  1.2424998E+04  5.8415255E+06
  1.2475000E+04  5.7455530E+06
  1.2524997E+04  5.6530690E+06
  1.2574997E+04  5.5756710E+06
  1.2624999E+04  5.4920935E+06
  1.2674997E+04  5.4106335E+06
  1.2724999E+04  5.3293160E+06
  1.2774999E+04  5.2038410E+06
  1.2825000E+04  4.9789625E+06
  1.2875001E+04  5.0913425E+06
  1.2924997E+04  5.0186510E+06
  1.2975001E+04  4.9241265E+06
  1.3024998E+04  4.8685130E+06
  1.3074999E+04  4.8004845E+06
  1.3125000E+04  4.7304945E+06
  1.3174998E+04  4.6615675E+06
  1.3224998E+04  4.5940240E+06
  1.3274997E+04  4.5276365E+06
  1.3324997E+04  4.4611010E+06
  1.3374999E+04  4.3964365E+06
  1.3424999E+04  4.3313465E+06
  1.3474999E+04  4.2730430E+06
  1.3525001E+04  4.2106300E+06
  1.3574999E+04  4.1529908E+06
  1.3624997E+04  4.0917548E+06
  1.3674997E+04  4.0369428E+06
  1.3724995E+04  3.9772192E+06
  1.3774998E+04  3.9253298E+06
  1.3824998E+04  3.8707625E+06
  1.3874996E+04  3.8167545E+06
  1.3925000E+04  3.7613152E+06
  1.3974996E+04  3.7116712E+06
  1.4024997E+04  3.6591602E+06
  1.4075001E+04  3.6116575E+06
  1.4124996E+04  3.5616132E+06
  1.4175000E+04  3.5137315E+06
  1.4225000E+04  3.4664945E+06
  1.4274994E+04  3.4192468E+06
  1.4325001E+04  3.3734435E+06
  1.4374998E+04  3.3280818E+06
  1.4424999E+04  3.2841878E+06
  1.4475000E+04  3.2405330E+06
  1.4524997E+04  3.1970050E+06
  1.4569999E+04  3.1592665E+06
  1.4620000E+04  3.1268655E+06
  1.4674998E+04  3.0947300E+06
  1.4725000E+04  3.0514595E+06
  1.4775002E+04  3.0032648E+06
  1.4824998E+04  2.9607810E+06
  1.4874996E+04  2.9191238E+06
  1.4924997E+04  2.8763952E+06
  1.4974999E+04  2.8364702E+06
  1.5024999E+04  2.7962692E+06
  1.5075000E+04  2.7557462E+06
  1.5124999E+04  2.7227745E+06
  1.5175000E+04  2.6885620E+06
  1.5225002E+04  2.6606882E+06
  1.5274998E+04  2.6157005E+06
  1.5324995E+04  2.5843642E+06
  1.5374997E+04  2.5635745E+06
  1.5425001E+04  2.5120028E+06
  1.5474996E+04  2.5026580E+06
  1.5524994E+04  2.4740765E+06
  1.5575001E+04  2.4088798E+06
  1.5624998E+04  2.4251698E+06
  1.5674997E+04  2.3747295E+06
  1.5724994E+04  2.3206138E+06
  1.5774996E+04  2.3376340E+06
  1.5825001E+04  2.3075130E+06
  1.5874995E+04  2.2168210E+06
  1.5925002E+04  2.2449098E+06
  1.5975001E+04  2.2258985E+06
  1.6049998E+04  2.1808452E+06
  1.6150001E+04  2.0998060E+06
  1.6249997E+04  2.0827620E+06
  1.6350000E+04  2.0281140E+06
  1.6449996E+04  1.9527024E+06
  1.6549998E+04  1.9397270E+06
  1.6649994E+04  1.8947395E+06
  1.6749998E+04  1.8449986E+06
  1.6849998E+04  1.7769581E+06
  1.6950000E+04  1.7673639E+06
  1.7049996E+04  1.7210770E+06
  1.7150000E+04  1.6883841E+06
  1.7249992E+04  1.6505704E+06
  1.7349994E+04  1.5796909E+06
  1.7449992E+04  1.5772328E+06
  1.7550000E+04  1.5431898E+06
  1.7649998E+04  1.5093546E+06
  1.7749994E+04  1.4763342E+06
  1.7849994E+04  1.4433544E+06
  1.7949998E+04  1.4132109E+06
  1.8050002E+04  1.3827985E+06
  1.8150002E+04  1.3251215E+06
  1.8249994E+04  1.3221619E+06
  1.8349992E+04  1.2965728E+06
  1.8449992E+04  1.2692044E+06
  1.8549998E+04  1.2414422E+06
  1.8650002E+04  1.2110640E+06
  1.8750002E+04  1.1644798E+06
  1.8850000E+04  1.1672095E+06
  1.8950004E+04  1.1428009E+06
  1.9049996E+04  1.1170560E+06
  1.9149998E+04  1.0972775E+06
  1.9249992E+04  1.0751636E+06
  1.9350000E+04  1.0535416E+06
  1.9449992E+04  1.0075194E+06
  1.9550002E+04  1.0108546E+06
  1.9649992E+04  9.9195938E+05
  1.9749992E+04  9.7244006E+05
  1.9849992E+04  9.5335388E+05
  1.9950002E+04  9.3478050E+05
  2.0050002E+04  9.1661969E+05
  2.0149996E+04  8.9892075E+05
  2.0249994E+04  8.8164238E+05
  2.0349994E+04  8.6477512E+05
  2.0449996E+04  8.4802250E+05
  2.0550000E+04  8.3053181E+05
  2.0649992E+04  8.1651812E+05
  2.0749998E+04  8.0109088E+05
  2.0849992E+04  7.8619819E+05
  2.0950004E+04  7.7146944E+05
  2.1050002E+04  7.5717475E+05
  2.1149992E+04  7.4073000E+05
  2.1250000E+04  7.2968462E+05
  2.1350002E+04  7.1634062E+05
  2.1449996E+04  7.0310956E+05
  2.1550006E+04  6.9050462E+05
  2.1649994E+04  6.6050175E+05
  2.1750002E+04  6.6567138E+05
  2.1849998E+04  6.5371494E+05
  2.1950002E+04  6.4242056E+05
  2.2050000E+04  6.3105756E+05
  2.2149996E+04  6.1992206E+05
  2.2249998E+04  6.0888781E+05
  2.2350004E+04  5.9838556E+05
  2.2449990E+04  5.8797562E+05
  2.2549994E+04  5.7777262E+05
  2.2650000E+04  5.6781988E+05
  2.2750000E+04  5.5804294E+05
  2.2850000E+04  5.4885131E+05
  2.2950004E+04  5.4084550E+05
  2.3050000E+04  5.3153612E+05
  2.3149996E+04  5.2263562E+05
  2.3250000E+04  5.1355722E+05
  2.3349996E+04  5.0421931E+05
  2.3449994E+04  4.9541416E+05
  2.3550002E+04  4.8699903E+05
  2.3649988E+04  4.7858050E+05
  2.3750000E+04  4.7058281E+05
  2.3849990E+04  4.6278734E+05
  2.3950002E+04  4.5512538E+05
  2.4050006E+04  4.4755428E+05
  2.4149992E+04  4.4003153E+05
  2.4249990E+04  4.3371825E+05
  2.4349990E+04  4.2615866E+05
  2.4450002E+04  4.1902853E+05
  2.4549990E+04  4.1353309E+05
  2.4649992E+04  4.0607956E+05
  2.4749992E+04  3.9914394E+05
  2.4850006E+04  3.9512197E+05
  2.4950000E+04  3.8492988E+05
  2.5050006E+04  3.8299003E+05
  2.5149994E+04  3.7697431E+05
  2.5249998E+04  3.6643300E+05
  2.5350004E+04  3.6509638E+05
  2.5449988E+04  3.5977094E+05
  2.5549998E+04  3.5396572E+05
  2.5649990E+04  3.4344675E+05
  2.5749990E+04  3.4344294E+05
  2.5849994E+04  3.3829628E+05
  2.5949990E+04  3.3316547E+05
  2.6049996E+04  3.2744912E+05
  2.6149998E+04  3.1679506E+05
  2.6249988E+04  3.0958297E+05
  2.6350008E+04  3.1343759E+05
  2.6449996E+04  3.0898109E+05
  2.6549994E+04  3.0414019E+05
  2.6649994E+04  2.9961634E+05
  2.6749988E+04  2.8936997E+05
  2.6849986E+04  2.9081147E+05
  2.6949986E+04  2.8694022E+05
  2.7050002E+04  2.8277366E+05
  2.7149998E+04  2.7867725E+05
  2.7249994E+04  2.7464941E+05
  2.7350006E+04  2.7070462E+05
  2.7450004E+04  2.6681022E+05
  2.7549996E+04  2.5765667E+05
  2.7649982E+04  2.5822781E+05
  2.7750004E+04  2.5559103E+05
  2.7850000E+04  2.5198091E+05
  2.7949992E+04  2.4843127E+05
  2.8049994E+04  2.4491030E+05
  2.8150002E+04  2.4152373E+05
  2.8250006E+04  2.3816391E+05
  2.8350000E+04  2.3484558E+05
  2.8450000E+04  2.3159745E+05
  2.8550002E+04  2.2831539E+05
  2.8650002E+04  2.2482512E+05
  2.8749982E+04  2.1682258E+05
  2.8849998E+04  2.1913988E+05
  2.8949986E+04  2.1616930E+05
  2.9049994E+04  2.1323408E+05
  2.9149986E+04  2.1034831E+05
  2.9249984E+04  2.0752491E+05
  2.9349980E+04  2.0473505E+05
  2.9450000E+04  2.0199175E+05
  2.9550004E+04  1.9929480E+05
  2.9649982E+04  1.9665717E+05
  2.9749992E+04  1.9405003E+05
  2.9849994E+04  1.9148692E+05
  2.9949984E+04  1.8895381E+05
  3.0049996E+04  1.8648970E+05
  3.0149994E+04  1.8398825E+05
  3.0249994E+04  1.8164680E+05
  3.0349996E+04  1.7564784E+05
  3.0449996E+04  1.7562125E+05
  3.0549996E+04  1.7466612E+05
  3.0649996E+04  1.7240492E+05
  3.0749994E+04  1.7011869E+05
  3.0849996E+04  1.6798436E+05
  3.0949994E+04  1.6589909E+05
  3.1049996E+04  1.6378739E+05
  3.1149996E+04  1.6169936E+05
  3.1249996E+04  1.5964694E+05
  3.1349996E+04  1.5766617E+05
  3.1449996E+04  1.5568308E+05
  3.1549998E+04  1.5374600E+05
  3.1649996E+04  1.5181833E+05
  3.1749998E+04  1.4993559E+05
  3.1849996E+04  1.4808533E+05
  3.1949994E+04  1.4625528E+05
  3.2099996E+04  1.4355322E+05
  3.2299992E+04  1.4006838E+05
  3.2499994E+04  1.3666948E+05
  3.2699996E+04  1.3338786E+05
  3.2899996E+04  1.2823691E+05
  3.3099996E+04  1.2715162E+05
  3.3299992E+04  1.2427710E+05
  3.3499996E+04  1.2137644E+05
  3.3699996E+04  1.1853569E+05
  3.3899996E+04  1.1578462E+05
  3.4099996E+04  1.1311041E+05
  3.4299996E+04  1.1044972E+05
  3.4499992E+04  1.0787320E+05
  3.4699996E+04  1.0536845E+05
  3.4899996E+04  1.0297295E+05
  3.5099996E+04  1.0066399E+05
  3.5299996E+04  9.8448727E+04
  3.5499996E+04  9.6191195E+04
  3.5699992E+04  9.4025953E+04
  3.5899992E+04  9.2185688E+04
  3.6099996E+04  8.9888008E+04
  3.6299992E+04  8.8196781E+04
  3.6499992E+04  8.5980828E+04
  3.6699992E+04  8.4467547E+04
  3.6899992E+04  8.2237734E+04
  3.7099996E+04  8.0795852E+04
  3.7299996E+04  7.8697461E+04
  3.7499992E+04  7.6311688E+04
  3.7699996E+04  7.5899859E+04
  3.7899996E+04  7.4320336E+04
  3.8099992E+04  7.2437641E+04
  3.8299996E+04  7.1047867E+04
  3.8499996E+04  6.9816500E+04
  3.8699996E+04  6.8392141E+04
  3.8899992E+04  6.6988578E+04
  3.9099996E+04  6.5039008E+04
  3.9299992E+04  6.4328266E+04
  3.9499992E+04  6.3042102E+04
  3.9699992E+04  6.1786898E+04
  3.9900000E+04  6.0563395E+04
  4.0099996E+04  5.9129277E+04
  4.0299992E+04  5.7660020E+04
  4.0499996E+04  5.6173684E+04
  4.0699992E+04  5.5958152E+04
  4.0899992E+04  5.4877438E+04
  4.1099996E+04  5.3820730E+04
  4.1299996E+04  5.2746727E+04
  4.1499992E+04  5.1782797E+04
  4.1699992E+04  5.0128703E+04
  4.1899996E+04  4.9840488E+04
  4.2099996E+04  4.8905289E+04
  4.2299992E+04  4.7990203E+04
  4.2499996E+04  4.7072859E+04
  4.2699992E+04  4.6223848E+04
  4.2899992E+04  4.5292145E+04
  4.3099996E+04  4.4537078E+04
  4.3299996E+04  4.3723016E+04
  4.3499992E+04  4.2927078E+04
  4.3699996E+04  4.1581199E+04
  4.3899996E+04  4.1318309E+04
  4.4099992E+04  4.0645336E+04
  4.4299992E+04  3.9918645E+04
  4.4499996E+04  3.9208188E+04
  4.4699996E+04  3.8547828E+04
  4.4899996E+04  3.7867324E+04
  4.5099992E+04  3.7202066E+04
  4.5299992E+04  3.6551137E+04
  4.5499996E+04  3.5914246E+04
  4.5699992E+04  3.5291680E+04
  4.5899996E+04  3.4681980E+04
  4.6099996E+04  3.4074184E+04
  4.6299992E+04  3.3501305E+04
  4.6499988E+04  3.2362439E+04
  4.6699992E+04  3.1816953E+04
  4.6899992E+04  3.1778961E+04
  4.7099992E+04  3.1287482E+04
  4.7299992E+04  3.0762961E+04
  4.7499996E+04  3.0248797E+04
  4.7699992E+04  2.9745854E+04
  4.7899992E+04  2.9253373E+04
  4.8099996E+04  2.8770619E+04
  4.8299992E+04  2.8297939E+04
  4.8499992E+04  2.7835117E+04
  4.8700000E+04  2.7381447E+04
  4.8899992E+04  2.6936775E+04
  4.9099988E+04  2.6501404E+04
  4.9299988E+04  2.6074660E+04
  4.9499996E+04  2.5656375E+04
  4.9699992E+04  2.5246404E+04
  4.9899988E+04  2.4844574E+04
  5.0099996E+04  2.4450723E+04
  5.0299996E+04  2.4064711E+04
  5.0499996E+04  2.3686389E+04
  5.0699996E+04  2.3315609E+04
  5.0899992E+04  2.2951770E+04
  5.1099992E+04  2.2586465E+04
  5.1299996E+04  2.1843387E+04
  5.1499988E+04  2.1901037E+04
  5.1699996E+04  2.1565014E+04
  5.1899992E+04  2.1234857E+04
  5.2099992E+04  2.0910889E+04
  5.2299996E+04  2.0593434E+04
  5.2499996E+04  2.0281508E+04
  5.2699996E+04  1.9975441E+04
  5.2899992E+04  1.9675561E+04
  5.3099988E+04  1.9380898E+04
  5.3299988E+04  1.9091783E+04
  5.3499992E+04  1.8808113E+04
  5.3699992E+04  1.8529801E+04
  5.3899992E+04  1.8256330E+04
  5.4099992E+04  1.7988027E+04
  5.4299984E+04  1.7724809E+04
  5.4499988E+04  1.7466162E+04
  5.4699996E+04  1.7212021E+04
  5.4899992E+04  1.6963109E+04
  5.5099992E+04  1.6718139E+04
  5.5299988E+04  1.6477832E+04
  5.5499988E+04  1.6241325E+04
  5.5699992E+04  1.6009714E+04
  5.5899992E+04  1.5781766E+04
  5.6099988E+04  1.5557802E+04
  5.6299996E+04  1.5338121E+04
  5.6499988E+04  1.5122293E+04
  5.6699988E+04  1.4909864E+04
  5.6899992E+04  1.4701522E+04
  5.7099996E+04  1.4496465E+04
  5.7299988E+04  1.4295374E+04
  5.7499988E+04  1.4097446E+04
  5.7699988E+04  1.3902995E+04
  5.7899996E+04  1.3711243E+04
  5.8099988E+04  1.3523938E+04
  5.8299996E+04  1.3339219E+04
  5.8499992E+04  1.3165123E+04
  5.8699988E+04  1.2986473E+04
  5.8899988E+04  1.2804753E+04
  5.9099992E+04  1.2388639E+04
  5.9299988E+04  1.2468221E+04
  5.9499996E+04  1.2301889E+04
  5.9699988E+04  1.2137509E+04
  5.9899992E+04  1.1976379E+04
  6.0099992E+04  1.1817786E+04
  6.0299992E+04  1.1661689E+04
  6.0499988E+04  1.1508054E+04
  6.0699992E+04  1.1357158E+04
  6.0899992E+04  1.1208319E+04
  6.1099988E+04  1.1062468E+04
  6.1299992E+04  1.0918595E+04
  6.1499988E+04  1.0776994E+04
  6.1699988E+04  1.0637940E+04
  6.1899996E+04  1.0501077E+04
  6.2099996E+04  1.0366380E+04
  6.2299988E+04  1.0233813E+04
  6.2499992E+04  1.0103339E+04
  6.2699988E+04  9.9746250E+03
  6.2899996E+04  9.8482471E+03
  6.3099984E+04  9.7238789E+03
  6.3299996E+04  9.6014727E+03
  6.3499984E+04  9.4810146E+03
  6.3699984E+04  9.3624658E+03
  6.3900000E+04  9.2455039E+03
  6.4199992E+04  9.0737637E+03
  6.4599984E+04  8.8508242E+03
  6.4999992E+04  8.6346533E+03
  6.5399992E+04  8.4250576E+03
  6.5799992E+04  8.2218418E+03
  6.6199984E+04  8.0245522E+03
  6.6599984E+04  7.8332856E+03
  6.6999992E+04  7.6476021E+03
  6.7399992E+04  7.4673467E+03
  6.7799992E+04  7.2923657E+03
  6.8199992E+04  7.1225107E+03
  6.8599992E+04  6.9576392E+03
  6.8999984E+04  6.7973618E+03
  6.9399984E+04  6.6417988E+03
  6.9800000E+04  6.4905732E+03
  7.0199992E+04  6.3435732E+03
  7.0599984E+04  6.2006826E+03
  7.0999977E+04  6.0617896E+03
  7.1399977E+04  5.9267852E+03
  7.1799984E+04  5.7955669E+03
  7.2199984E+04  5.6680361E+03
  7.2600000E+04  5.5438643E+03
  7.2999984E+04  5.4229702E+03
  7.3400000E+04  5.3054844E+03
  7.3799984E+04  5.1911040E+03
  7.4199992E+04  5.0723384E+03
  7.4599992E+04  4.9495664E+03
  7.5000000E+04  4.8103569E+03
  7.5399992E+04  4.7634624E+03
  7.5799992E+04  4.6634395E+03
  7.6199984E+04  4.5660757E+03
  7.6599992E+04  4.4713013E+03
  7.6999992E+04  4.3788525E+03
  7.7399992E+04  4.2886714E+03
  7.7799984E+04  4.2009019E+03
  7.8199984E+04  4.1154829E+03
  7.8599984E+04  4.0321631E+03
  7.8999984E+04  3.9508916E+03
  7.9399984E+04  3.8716199E+03
  7.9800000E+04  3.7942986E+03
  8.0199992E+04  3.7190708E+03
  8.0599984E+04  3.6455154E+03
  8.0999992E+04  3.5737749E+03
  8.1399977E+04  3.5038098E+03
  8.1799984E+04  3.4355750E+03
  8.2199984E+04  3.3690320E+03
  8.2599992E+04  3.3039646E+03
  8.2999984E+04  3.2405156E+03
  8.3400000E+04  3.1786443E+03
  8.3799992E+04  3.1181467E+03
  8.4199992E+04  3.0591599E+03
  8.4599977E+04  3.0014827E+03
  8.4999977E+04  2.9452500E+03
  8.5399984E+04  2.8902649E+03
  8.5799984E+04  2.8365010E+03
  8.6199992E+04  2.7840920E+03
  8.6599992E+04  2.7328484E+03
  8.6999984E+04  2.6827444E+03
  8.7399992E+04  2.6337546E+03
  8.7799992E+04  2.5860107E+03
  8.8199984E+04  2.5391775E+03
  8.8599977E+04  2.4935410E+03
  8.8999992E+04  2.4487705E+03
  8.9399977E+04  2.4051519E+03
  8.9799977E+04  2.3623586E+03
  9.0199984E+04  2.3205232E+03
  9.0599984E+04  2.2797712E+03
  9.0999992E+04  2.2397891E+03
  9.1400000E+04  2.2005615E+03
  9.1799969E+04  2.1623599E+03
  9.2199969E+04  2.1250176E+03
  9.2599984E+04  2.0882375E+03
  9.3000000E+04  2.0524265E+03
  9.3399984E+04  2.0174270E+03
  9.3799984E+04  1.9830844E+03
  9.4199977E+04  1.9495217E+03
  9.4599984E+04  1.9165880E+03
  9.4999969E+04  1.8844052E+03
  9.5399984E+04  1.8528242E+03
  9.5799984E+04  1.8219659E+03
  9.6199992E+04  1.7916848E+03
  9.6599984E+04  1.7620996E+03
  9.7000000E+04  1.7330668E+03
  9.7399977E+04  1.7047048E+03
  9.7799984E+04  1.6768722E+03
  9.8199977E+04  1.6495604E+03
  9.8599977E+04  1.6228823E+03
  9.8999992E+04  1.5967021E+03
  9.9399984E+04  1.5710125E+03
  9.9799977E+04  1.5459231E+03
  1.0019999E+05  1.5211829E+03
  1.9999991E+05  9.4171555E+01
  3.9999994E+05  5.7428665E+00
  5.9999981E+05  1.1168355E+00
  7.9999994E+05  3.4946686E-01
