  5.0599994E+02  9.2796810E-13
  5.1199994E+02  1.8244948E-12
  5.2000000E+02  3.8529809E-12
  5.2999994E+02  9.5114628E-12
  5.3999994E+02  2.2459923E-11
  5.4999988E+02  5.1848130E-11
  5.5999988E+02  1.1592188E-10
  5.6999988E+02  2.5202687E-10
  5.7999994E+02  5.3118188E-10
  5.8999988E+02  1.1041678E-09
  5.9999988E+02  2.2310722E-09
  6.0999988E+02  4.4144994E-09
  6.1999994E+02  8.5505416E-09
  6.2999988E+02  1.6239822E-08
  6.3999994E+02  3.0269302E-08
  6.4999994E+02  5.5463072E-08
  6.5799994E+02  8.8898929E-08
  6.6499988E+02  1.3307907E-07
  6.7499994E+02  2.3388226E-07
  6.8499988E+02  4.0489292E-07
  6.9499994E+02  6.9039811E-07
  7.0499988E+02  1.1585848E-06
  7.1599988E+02  2.0224047E-06
  7.2599994E+02  3.3048868E-06
  7.3499982E+02  5.0868398E-06
  7.4499994E+02  8.1164517E-06
  7.5499982E+02  1.2800778E-05
  7.6499994E+02  1.9960180E-05
  7.7499994E+02  3.0776835E-05
  7.8499982E+02  4.6959125E-05
  7.9499982E+02  7.0712704E-05
  8.0500000E+02  1.0584005E-04
  8.1499976E+02  1.5678829E-04
  8.2500000E+02  2.2990747E-04
  8.3499994E+02  3.3397609E-04
  8.4499994E+02  4.8101495E-04
  8.5499988E+02  6.8677281E-04
  8.6499994E+02  9.7237265E-04
  8.7499982E+02  1.3649925E-03
  8.8499982E+02  1.9031301E-03
  8.9499988E+02  2.6319725E-03
  9.0499994E+02  3.6107493E-03
  9.1499982E+02  1.3791575E+00
  9.2499988E+02  4.8815069E+00
  9.3499982E+02  6.0767894E+00
  9.4500000E+02  7.8579564E+00
  9.5500000E+02  1.1714020E+01
  9.6499988E+02  1.4892750E+01
  9.7499982E+02  1.6626089E+01
  9.8499976E+02  2.1917639E+01
  9.9499988E+02  2.4943495E+01
  1.0049999E+03  3.3597542E+01
  1.0149997E+03  4.1479038E+01
  1.0249998E+03  3.4370850E+01
  1.0349998E+03  5.8413826E+01
  1.0449998E+03  7.4122269E+01
  1.0549999E+03  8.8768471E+01
  1.0649999E+03  9.9406349E+01
  1.0750000E+03  1.2239530E+02
  1.0849996E+03  1.4285533E+02
  1.0949999E+03  1.5709010E+02
  1.1049999E+03  5.8329364E+02
  1.1149999E+03  9.7161218E+02
  1.1249999E+03  1.2852826E+03
  1.1349996E+03  1.4462107E+03
  1.1449999E+03  1.6941848E+03
  1.1549999E+03  1.7594513E+03
  1.1650000E+03  2.1019692E+03
  1.1749995E+03  2.1562427E+03
  1.1849996E+03  1.8607355E+03
  1.1949998E+03  7.8834552E+02
  1.2049996E+03  7.1095557E+02
  1.2149998E+03  1.4298596E+02
  1.2249996E+03  8.2077582E+02
  1.2349996E+03  2.2996467E+03
  1.2449998E+03  4.7661558E+03
  1.2549996E+03  8.0149565E+03
  1.2650000E+03  1.0719896E+04
  1.2749998E+03  5.4933727E+04
  1.2849995E+03  1.7317828E+05
  1.2949998E+03  2.5109442E+05
  1.3049995E+03  8.5152445E+04
  1.3149998E+03  5.3200825E+05
  1.3249998E+03  8.7129794E+05
  1.3349996E+03  6.1051494E+05
  1.3449995E+03  1.5342520E+06
  1.3549996E+03  1.7112232E+06
  1.3649999E+03  1.5138846E+06
  1.3749999E+03  1.8818341E+06
  1.3849996E+03  2.0326138E+06
  1.3949999E+03  2.3469950E+06
  1.4050001E+03  2.6444155E+06
  1.4149998E+03  2.3938358E+06
  1.4249998E+03  3.1259995E+06
  1.4350000E+03  2.7574010E+06
  1.4419998E+03  3.2727410E+06
  1.4469999E+03  4.2725350E+06
  1.4549994E+03  4.1751565E+06
  1.4650000E+03  3.8018235E+06
  1.4749995E+03  3.7117022E+06
  1.4849996E+03  4.6289020E+06
  1.4949998E+03  5.0750175E+06
  1.5049996E+03  5.5500450E+06
  1.5119995E+03  4.4564060E+06
  1.5169994E+03  5.1567610E+06
  1.5250001E+03  4.5074920E+06
  1.5349994E+03  3.8450482E+06
  1.5449994E+03  6.3716095E+06
  1.5549998E+03  5.2454850E+06
  1.5649999E+03  4.3150305E+06
  1.5750001E+03  5.3669030E+06
  1.5850000E+03  6.3829525E+06
  1.5949996E+03  7.6974840E+06
  1.6049999E+03  6.5381595E+06
  1.6150000E+03  6.1374430E+06
  1.6249996E+03  5.2183720E+06
  1.6350000E+03  5.6324785E+06
  1.6449996E+03  6.3942320E+06
  1.6549999E+03  4.8365110E+06
  1.6649993E+03  6.2722545E+06
  1.6720000E+03  2.0801290E+06
  1.6770001E+03  6.4203100E+06
  1.6849998E+03  7.8504285E+06
  1.6950000E+03  7.4642255E+06
  1.7049995E+03  6.3312150E+06
  1.7150000E+03  6.6017030E+06
  1.7249993E+03  6.6974705E+06
  1.7349994E+03  7.8769415E+06
  1.7449993E+03  7.3596315E+06
  1.7550001E+03  9.2417730E+06
  1.7649998E+03  7.2569130E+06
  1.7749995E+03  8.5794700E+06
  1.7849995E+03  7.6789455E+06
  1.7949999E+03  1.0213036E+07
  1.8050001E+03  9.7497800E+06
  1.8150001E+03  9.8989140E+06
  1.8249994E+03  9.1768590E+06
  1.8349993E+03  8.4688380E+06
  1.8449993E+03  7.6600355E+06
  1.8549998E+03  8.3262330E+06
  1.8650002E+03  8.6243520E+06
  1.8750001E+03  9.0196950E+06
  1.8850000E+03  8.8459540E+06
  1.8950002E+03  9.2053220E+06
  1.9049996E+03  8.5610660E+06
  1.9149999E+03  9.0346520E+06
  1.9249993E+03  9.5144730E+06
  1.9350001E+03  8.7399580E+06
  1.9449993E+03  9.7759560E+06
  1.9550002E+03  9.6950170E+06
  1.9670002E+03  1.0475287E+07
  1.9759990E+03  1.0472538E+07
  1.9839996E+03  9.9855000E+06
  1.9950001E+03  9.5912560E+06
  2.0050002E+03  9.3401060E+06
  2.0149996E+03  8.6155920E+06
  2.0249994E+03  8.7608610E+06
  2.0349995E+03  9.1550780E+06
  2.0449998E+03  1.0025784E+07
  2.0550000E+03  9.0646330E+06
  2.0649993E+03  8.7875170E+06
  2.0739993E+03  1.0285705E+07
  2.0780002E+03  1.0432201E+07
  2.0849993E+03  1.0126706E+07
  2.0950005E+03  9.6739670E+06
  2.1050002E+03  9.0661790E+06
  2.1149990E+03  9.0701980E+06
  2.1250000E+03  9.3939900E+06
  2.1350002E+03  7.3349345E+06
  2.1449998E+03  8.6040130E+06
  2.1550005E+03  9.0495600E+06
  2.1649995E+03  8.2339485E+06
  2.1750002E+03  8.1180980E+06
  2.1849998E+03  8.2336025E+06
  2.1950000E+03  9.1239620E+06
  2.2050000E+03  8.4721430E+06
  2.2149998E+03  7.3655910E+06
  2.2249998E+03  6.9705860E+06
  2.2350005E+03  8.4567630E+06
  2.2449990E+03  7.4981650E+06
  2.2549993E+03  6.8401215E+06
  2.2650000E+03  7.0940090E+06
  2.2750000E+03  7.6754365E+06
  2.2850000E+03  8.1800595E+06
  2.2950002E+03  7.5784415E+06
  2.3050000E+03  7.4663335E+06
  2.3149995E+03  6.8201975E+06
  2.3250000E+03  3.5824778E+06
  2.3349995E+03  5.2924885E+06
  2.3449993E+03  4.5753520E+06
  2.3550000E+03  6.5543685E+06
  2.3649988E+03  4.5726935E+06
  2.3750000E+03  5.6404030E+06
  2.3849990E+03  3.9359690E+06
  2.3950000E+03  4.9645680E+06
  2.4050005E+03  4.6293785E+06
  2.4149993E+03  5.2706735E+06
  2.4249990E+03  6.7842270E+06
  2.4349990E+03  6.4442570E+06
  2.4450000E+03  7.0215225E+06
  2.4549990E+03  6.7798015E+06
  2.4649990E+03  6.6114250E+06
  2.4749993E+03  6.3245590E+06
  2.4850005E+03  6.7512710E+06
  2.4950000E+03  6.4373945E+06
  2.5050005E+03  7.7568815E+06
  2.5129988E+03  6.2348065E+06
  2.5179990E+03  6.6751530E+06
  2.5249998E+03  5.7940505E+06
  2.5350007E+03  5.7822000E+06
  2.5449988E+03  5.8083235E+06
  2.5550000E+03  6.5835150E+06
  2.5649990E+03  6.1367660E+06
  2.5749990E+03  6.9379455E+06
  2.5849993E+03  6.5963390E+06
  2.5949990E+03  6.0747615E+06
  2.6049995E+03  5.5894320E+06
  2.6149998E+03  5.3440425E+06
  2.6249990E+03  6.4114590E+06
  2.6350007E+03  6.8506180E+06
  2.6449995E+03  8.7718350E+06
  2.6549998E+03  8.6415740E+06
  2.6649995E+03  7.4254865E+06
  2.6749988E+03  8.0085785E+06
  2.6849988E+03  7.7063460E+06
  2.6949988E+03  7.4686350E+06
  2.7050000E+03  7.7868475E+06
  2.7150000E+03  7.0778800E+06
  2.7249995E+03  7.2299950E+06
  2.7350007E+03  7.9164185E+06
  2.7450002E+03  5.5079250E+06
  2.7549998E+03  6.0356875E+06
  2.7649983E+03  6.5643160E+06
  2.7750005E+03  7.5918930E+06
  2.7850000E+03  7.0469005E+06
  2.7949993E+03  3.6127220E+06
  2.8049995E+03  4.4877610E+06
  2.8150002E+03  7.7053025E+06
  2.8250007E+03  8.4053070E+06
  2.8350000E+03  7.8900055E+06
  2.8450002E+03  7.5830670E+06
  2.8550005E+03  7.2138765E+06
  2.8650000E+03  8.1358690E+06
  2.8749983E+03  7.7384405E+06
  2.8850000E+03  7.9178495E+06
  2.8949988E+03  7.4660530E+06
  2.9099988E+03  8.7202860E+06
  2.9299983E+03  8.3060750E+06
  2.9499990E+03  8.2687895E+06
  2.9700005E+03  8.5336870E+06
  2.9899980E+03  8.7539150E+06
  3.0099995E+03  9.0008880E+06
  3.0299995E+03  8.8334750E+06
  3.0499995E+03  8.7381160E+06
  3.0699995E+03  8.7065750E+06
  3.0899995E+03  8.9859590E+06
  3.1099995E+03  8.6170850E+06
  3.1299998E+03  8.5832050E+06
  3.1499995E+03  8.8749490E+06
  3.1699995E+03  8.8279950E+06
  3.1899995E+03  8.3807340E+06
  3.2099998E+03  8.6865120E+06
  3.2299993E+03  8.4823780E+06
  3.2499993E+03  8.6489600E+06
  3.2699995E+03  8.6593330E+06
  3.2899995E+03  8.7789390E+06
  3.3099998E+03  8.9025830E+06
  3.3299993E+03  8.6855550E+06
  3.3499995E+03  8.5769190E+06
  3.3699995E+03  8.5587280E+06
  3.3899993E+03  8.5456920E+06
  3.4099993E+03  8.7819390E+06
  3.4299995E+03  8.8017300E+06
  3.4499993E+03  8.7354420E+06
  3.4699998E+03  8.5845400E+06
  3.4899993E+03  8.5030720E+06
  3.5099995E+03  8.7385530E+06
  3.5299995E+03  8.8149620E+06
  3.5499995E+03  8.8719710E+06
  3.5699995E+03  8.6442210E+06
  3.5899995E+03  8.6091200E+06
  3.6099995E+03  8.6276340E+06
  3.6299993E+03  8.6434900E+06
  3.6399993E+03  8.5825780E+06
  3.6499995E+03  8.7284180E+06
  3.6699993E+03  8.4534320E+06
  3.6899995E+03  1.1944140E+07
  3.7099995E+03  1.9272622E+07
  3.7299998E+03  2.0361098E+07
  3.7499993E+03  2.5543254E+07
  3.7699993E+03  2.5554762E+07
  3.7899995E+03  2.8707790E+07
  3.8099993E+03  3.1135806E+07
  3.8299998E+03  2.5584392E+07
  3.8499995E+03  3.1471916E+07
  3.8699995E+03  3.1959362E+07
  3.8899995E+03  2.5100802E+07
  3.9099995E+03  3.0984852E+07
  3.9299993E+03  2.7926412E+07
  3.9499993E+03  3.0976126E+07
  3.9699998E+03  2.2834828E+07
  3.9899995E+03  3.0659458E+07
  4.0099995E+03  3.0161242E+07
  4.0299993E+03  2.9720118E+07
  4.0499993E+03  2.9524544E+07
  4.0699993E+03  2.8963616E+07
  4.0899995E+03  2.8221532E+07
  4.1099995E+03  2.3003760E+07
  4.1299995E+03  2.7866636E+07
  4.1499990E+03  2.8148762E+07
  4.1699990E+03  2.7315284E+07
  4.1899995E+03  2.7193110E+07
  4.2099995E+03  2.6909648E+07
  4.2299995E+03  2.6517054E+07
  4.2499995E+03  2.6068234E+07
  4.2699990E+03  2.5638484E+07
  4.2899995E+03  2.5676902E+07
  4.3100000E+03  2.4716134E+07
  4.3299995E+03  2.3260312E+07
  4.3499995E+03  2.0361794E+07
  4.3699995E+03  2.4619176E+07
  4.3899995E+03  2.3970380E+07
  4.4099995E+03  2.3622734E+07
  4.4299995E+03  2.3766158E+07
  4.4499995E+03  2.3516678E+07
  4.4699995E+03  2.3249090E+07
  4.4899995E+03  2.2830080E+07
  4.5099990E+03  2.2852084E+07
  4.5299995E+03  2.2341610E+07
  4.5499990E+03  2.1728580E+07
  4.5699995E+03  2.2148018E+07
  4.5899990E+03  2.1438034E+07
  4.6099990E+03  2.1934058E+07
  4.6299990E+03  2.1119562E+07
  4.6499990E+03  2.1364768E+07
  4.6699990E+03  2.1022154E+07
  4.6899990E+03  2.0865596E+07
  4.7099995E+03  2.0134150E+07
  4.7299990E+03  2.0430566E+07
  4.7499995E+03  2.0288106E+07
  4.7699995E+03  2.0052454E+07
  4.7899990E+03  1.9832044E+07
  4.8099995E+03  1.9497970E+07
  4.8299995E+03  1.9206780E+07
  4.8499990E+03  1.7793066E+07
  4.8700000E+03  1.4741910E+07
  4.8899990E+03  1.8580372E+07
  4.9099990E+03  1.8492486E+07
  4.9299990E+03  1.8077800E+07
  4.9499995E+03  1.8066596E+07
  4.9699995E+03  1.8007412E+07
  4.9899990E+03  1.7643268E+07
  5.0099995E+03  1.7107574E+07
  5.0299995E+03  1.7151434E+07
  5.0499995E+03  1.6922276E+07
  5.0699995E+03  1.6897730E+07
  5.0899995E+03  1.6730021E+07
  5.1099990E+03  1.6500584E+07
  5.1299995E+03  1.6287875E+07
  5.1499985E+03  1.5996136E+07
  5.1700000E+03  1.5668024E+07
  5.1899990E+03  1.5575553E+07
  5.2099990E+03  1.5543673E+07
  5.2299995E+03  1.5165042E+07
  5.2499995E+03  1.5271606E+07
  5.2699995E+03  1.4809625E+07
  5.2899990E+03  1.5000393E+07
  5.3099995E+03  1.4602231E+07
  5.3299990E+03  1.4559125E+07
  5.3499995E+03  1.4626856E+07
  5.3699995E+03  1.4384620E+07
  5.3899995E+03  1.4240919E+07
  5.4099990E+03  1.4011677E+07
  5.4299990E+03  1.3872453E+07
  5.4499990E+03  1.3865699E+07
  5.4699995E+03  1.3711585E+07
  5.4899995E+03  1.3609478E+07
  5.5099995E+03  1.3425146E+07
  5.5299985E+03  1.3263516E+07
  5.5499990E+03  1.3223375E+07
  5.5699990E+03  1.3057464E+07
  5.5899995E+03  1.2964963E+07
  5.6099990E+03  1.2868497E+07
  5.6299995E+03  1.2726156E+07
  5.6499990E+03  1.2553201E+07
  5.6699990E+03  1.2443164E+07
  5.6899995E+03  1.2360287E+07
  5.7099995E+03  1.2240749E+07
  5.7299990E+03  1.2124040E+07
  5.7499990E+03  1.1994507E+07
  5.7699990E+03  1.1880885E+07
  5.7899995E+03  1.1737420E+07
  5.8099985E+03  1.1636150E+07
  5.8300000E+03  1.1514459E+07
  5.8499990E+03  1.1425355E+07
  5.8699985E+03  1.1290558E+07
  5.8899985E+03  1.1093029E+07
  5.9099995E+03  1.1081588E+07
  5.9299985E+03  1.0980370E+07
  5.9499995E+03  1.0827410E+07
  5.9699990E+03  1.0756335E+07
  5.9899990E+03  1.0608090E+07
  6.0099990E+03  1.0548892E+07
  6.0299995E+03  1.0463199E+07
  6.0499990E+03  1.0344339E+07
  6.0699990E+03  1.0256430E+07
  6.0899995E+03  1.0155223E+07
  6.1099985E+03  1.0048380E+07
  6.1299995E+03  9.9494070E+06
  6.1499985E+03  9.6952070E+06
  6.1699985E+03  9.7694790E+06
  6.1900000E+03  9.6889190E+06
  6.2099995E+03  9.6051580E+06
  6.2299985E+03  9.4923010E+06
  6.2499990E+03  9.2658720E+06
  6.2699985E+03  9.3416800E+06
  6.2900000E+03  9.2517500E+06
  6.3099985E+03  9.1209170E+06
  6.3299995E+03  9.0732450E+06
  6.3499985E+03  8.8918720E+06
  6.3699985E+03  8.8287350E+06
  6.3899995E+03  8.8058580E+06
  6.4099990E+03  8.7054640E+06
  6.4299985E+03  8.6458840E+06
  6.4499985E+03  8.4776280E+06
  6.4699990E+03  8.5141000E+06
  6.4899990E+03  8.3748710E+06
  6.5099985E+03  8.2985925E+06
  6.5299990E+03  8.2154940E+06
  6.5499985E+03  7.6801670E+06
  6.5699985E+03  6.1821820E+06
  6.5899995E+03  7.9365180E+06
  6.6099985E+03  7.9530630E+06
  6.6299990E+03  7.9054250E+06
  6.6499985E+03  7.8446590E+06
  6.6699995E+03  7.7683030E+06
  6.6899990E+03  7.7029020E+06
  6.7099995E+03  7.6413365E+06
  6.7299990E+03  7.5533620E+06
  6.7499995E+03  7.5036665E+06
  6.7699985E+03  7.4426535E+06
  6.7899995E+03  7.3736415E+06
  6.8099995E+03  7.3115185E+06
  6.8300000E+03  7.2366265E+06
  6.8499985E+03  7.1780780E+06
  6.8699985E+03  7.1195760E+06
  6.8899985E+03  7.0596095E+06
  6.9099990E+03  6.9954445E+06
  6.9299995E+03  6.9326520E+06
  6.9499990E+03  6.8754320E+06
  6.9699985E+03  6.8150505E+06
  6.9899985E+03  6.7626085E+06
  7.0099985E+03  6.6781970E+06
  7.0299985E+03  6.6431645E+06
  7.0499990E+03  6.5813980E+06
  7.0699980E+03  6.5310220E+06
  7.0899990E+03  6.4796735E+06
  7.1099990E+03  6.3751895E+06
  7.1299995E+03  6.3559860E+06
  7.1499990E+03  6.3078120E+06
  7.1699995E+03  6.2575085E+06
  7.1899985E+03  6.1995495E+06
  7.2099985E+03  6.1527460E+06
  7.2299980E+03  6.0806725E+06
  7.2499990E+03  6.0437460E+06
  7.2699995E+03  6.0012355E+06
  7.2899990E+03  5.9433060E+06
  7.3099980E+03  5.8764955E+06
  7.3299980E+03  5.8469260E+06
  7.3499980E+03  5.8033845E+06
  7.3699985E+03  5.7635395E+06
  7.3899995E+03  5.7106455E+06
  7.4099985E+03  5.6379290E+06
  7.4299995E+03  5.5913250E+06
  7.4500000E+03  5.5507570E+06
  7.4700000E+03  5.4892685E+06
  7.4899990E+03  5.4623455E+06
  7.5099985E+03  5.4158560E+06
  7.5299995E+03  5.3907190E+06
  7.5499980E+03  5.3535730E+06
  7.5699985E+03  5.3069060E+06
  7.5899990E+03  5.2662770E+06
  7.6099980E+03  5.2272445E+06
  7.6299995E+03  5.1829845E+06
  7.6499995E+03  5.1298960E+06
  7.6699980E+03  5.0935990E+06
  7.6899990E+03  5.0574040E+06
  7.7099995E+03  4.9938790E+06
  7.7299985E+03  4.9795110E+06
  7.7499990E+03  4.9396680E+06
  7.7700000E+03  4.7923115E+06
  7.7900000E+03  4.8633785E+06
  7.8099995E+03  4.8265105E+06
  7.8299980E+03  4.7825230E+06
  7.8499980E+03  4.7340545E+06
  7.8699995E+03  4.6852395E+06
  7.8900000E+03  4.6443720E+06
  7.9099995E+03  4.6303075E+06
  7.9300000E+03  4.6014500E+06
  7.9499985E+03  4.5409510E+06
  7.9699990E+03  4.5338580E+06
  7.9900000E+03  4.4377415E+06
  8.0099980E+03  4.4625235E+06
  8.0299985E+03  4.4271170E+06
  8.0500000E+03  4.3953365E+06
  8.0699985E+03  4.3586650E+06
  8.0899990E+03  4.3272455E+06
  8.1099995E+03  4.2929835E+06
  8.1299976E+03  4.2646330E+06
  8.1499976E+03  4.2321735E+06
  8.1699980E+03  4.2003390E+06
  8.1899985E+03  4.1403392E+06
  8.2099990E+03  4.1285528E+06
  8.2300000E+03  4.0955858E+06
  8.2500000E+03  4.0722285E+06
  8.2700000E+03  4.0290610E+06
  8.2899980E+03  3.9108838E+06
  8.3099990E+03  3.8045595E+06
  8.3299980E+03  3.7232338E+06
  8.3500000E+03  3.8050012E+06
  8.3699990E+03  3.6769478E+06
  8.3899990E+03  3.8156560E+06
  8.4099971E+03  3.8577205E+06
  8.4300000E+03  4.0928880E+06
  8.4499990E+03  4.0352460E+06
  8.4699980E+03  3.7581268E+06
  8.4899980E+03  4.4069100E+06
  8.5099990E+03  3.7215552E+06
  8.5299990E+03  4.4627480E+06
  8.5499990E+03  3.5769078E+06
  8.5699990E+03  4.4556375E+06
  8.5900000E+03  4.0520235E+06
  8.6099980E+03  3.8774455E+06
  8.6299990E+03  4.3731265E+06
  8.6499990E+03  4.2718310E+06
  8.6699990E+03  3.4343880E+06
  8.6899990E+03  4.2017885E+06
  8.7099971E+03  4.2530145E+06
  8.7299990E+03  4.1877608E+06
  8.7499980E+03  3.3981890E+06
  8.7699980E+03  4.0861908E+06
  8.7899980E+03  4.1515832E+06
  8.8099990E+03  4.1101970E+06
  8.8299980E+03  4.0443828E+06
  8.8499980E+03  3.8952168E+06
  8.8699980E+03  3.2919275E+06
  8.8899990E+03  3.9743450E+06
  8.9099971E+03  3.9468572E+06
  8.9299980E+03  3.9161145E+06
  8.9499980E+03  3.9191415E+06
  8.9699990E+03  3.8875250E+06
  8.9899990E+03  3.8300370E+06
  9.0099980E+03  3.2255775E+06
  9.0299990E+03  3.5588182E+06
  9.0499990E+03  3.7573115E+06
  9.0699980E+03  3.6694785E+06
  9.0899990E+03  3.6266442E+06
  9.1099980E+03  3.6611670E+06
  9.1299980E+03  3.6524810E+06
  9.1499980E+03  3.6416882E+06
  9.1699980E+03  3.6040010E+06
  9.1899990E+03  3.5516978E+06
  9.2099990E+03  3.4794572E+06
  9.2299980E+03  2.8219650E+06
  9.2499980E+03  3.3893052E+06
  9.2699971E+03  3.3746968E+06
  9.2899990E+03  3.4511918E+06
  9.3099980E+03  3.4344432E+06
  9.3299990E+03  3.4055445E+06
  9.3499980E+03  3.3879740E+06
  9.3699990E+03  3.3649210E+06
  9.3900000E+03  3.3141522E+06
  9.4099980E+03  3.2539002E+06
  9.4299971E+03  3.2847495E+06
  9.4499990E+03  3.2665620E+06
  9.4700000E+03  3.2407440E+06
  9.4899980E+03  3.2220402E+06
  9.5100000E+03  3.1907335E+06
  9.5300000E+03  3.1090915E+06
  9.5500000E+03  2.5530490E+06
  9.5699990E+03  3.0880010E+06
  9.5899980E+03  3.1074718E+06
  9.6099980E+03  3.0724768E+06
  9.6299990E+03  3.0179602E+06
  9.6499990E+03  3.0460275E+06
  9.6699980E+03  3.0020220E+06
  9.6899980E+03  3.0002425E+06
  9.7100000E+03  2.9878945E+06
  9.7299990E+03  2.9651115E+06
  9.7499980E+03  2.9419852E+06
  9.7699961E+03  2.9256822E+06
  9.7899980E+03  2.9043558E+06
  9.8099980E+03  2.8810615E+06
  9.8299990E+03  2.8565668E+06
  9.8499980E+03  2.8317538E+06
  9.8700000E+03  2.8177030E+06
  9.8899980E+03  2.7841290E+06
  9.9099990E+03  2.7831590E+06
  9.9300000E+03  2.7567568E+06
  9.9499980E+03  2.7444752E+06
  9.9699980E+03  2.7309420E+06
  9.9899990E+03  2.7110060E+06
  1.0024998E+04  2.5937898E+06
  1.0074998E+04  2.4642645E+06
  1.0124997E+04  2.5670215E+06
  1.0174997E+04  2.5428972E+06
  1.0224998E+04  2.5061598E+06
  1.0274997E+04  2.4653588E+06
  1.0325000E+04  2.4211775E+06
  1.0374999E+04  2.3835260E+06
  1.0425000E+04  2.3460418E+06
  1.0474998E+04  2.2976888E+06
  1.0524997E+04  2.2602138E+06
  1.0574999E+04  2.2303115E+06
  1.0625000E+04  2.1966225E+06
  1.0674997E+04  2.1350542E+06
  1.0724998E+04  2.1157140E+06
  1.0774999E+04  2.0895134E+06
  1.0824997E+04  2.0578735E+06
  1.0874997E+04  2.0235818E+06
  1.0924999E+04  1.8226454E+06
  1.0974996E+04  1.9380904E+06
  1.1025000E+04  1.9378149E+06
  1.1074998E+04  1.9079412E+06
  1.1124999E+04  1.8779430E+06
  1.1174998E+04  1.8494608E+06
  1.1224999E+04  1.8215051E+06
  1.1274997E+04  1.7699180E+06
  1.1325000E+04  1.7464694E+06
  1.1375000E+04  1.7377298E+06
  1.1425000E+04  1.7100589E+06
  1.1474997E+04  1.6882682E+06
  1.1525000E+04  1.6634486E+06
  1.1574998E+04  1.6380108E+06
  1.1625000E+04  1.6052269E+06
  1.1674998E+04  1.5764634E+06
  1.1724997E+04  1.5667979E+06
  1.1775001E+04  1.5260155E+06
  1.1824999E+04  1.5148532E+06
  1.1875000E+04  1.4881770E+06
  1.1925000E+04  1.4780848E+06
  1.1975001E+04  1.4498785E+06
  1.2024998E+04  1.4346130E+06
  1.2074996E+04  1.4116540E+06
  1.2125000E+04  1.3922040E+06
  1.2175000E+04  1.3741588E+06
  1.2225001E+04  1.3540344E+06
  1.2275001E+04  1.3330779E+06
  1.2324996E+04  1.3153378E+06
  1.2374996E+04  1.2975261E+06
  1.2424998E+04  1.2808121E+06
  1.2475000E+04  1.2583134E+06
  1.2524997E+04  1.2450006E+06
  1.2574997E+04  1.2223036E+06
  1.2624999E+04  1.2082771E+06
  1.2674997E+04  1.1944344E+06
  1.2724999E+04  1.1784009E+06
  1.2774999E+04  1.1573644E+06
  1.2825000E+04  1.0480376E+06
  1.2875001E+04  1.1280254E+06
  1.2924997E+04  1.1155828E+06
  1.2975001E+04  1.1005188E+06
  1.3024998E+04  1.0860779E+06
  1.3074999E+04  1.0716144E+06
  1.3125000E+04  1.0571999E+06
  1.3174998E+04  1.0397266E+06
  1.3224998E+04  1.0294799E+06
  1.3274997E+04  1.0159555E+06
  1.3324997E+04  1.0026046E+06
  1.3374999E+04  9.8942444E+05
  1.3424999E+04  9.7601338E+05
  1.3474999E+04  9.6283975E+05
  1.3525001E+04  9.4917812E+05
  1.3574999E+04  9.3744888E+05
  1.3624997E+04  9.2605956E+05
  1.3674997E+04  9.1295156E+05
  1.3724995E+04  8.9918244E+05
  1.3774998E+04  8.9127588E+05
  1.3824998E+04  8.7994694E+05
  1.3874996E+04  8.6938094E+05
  1.3925000E+04  8.5739681E+05
  1.3974996E+04  8.4734338E+05
  1.4024997E+04  8.3686194E+05
  1.4075001E+04  8.2650756E+05
  1.4124996E+04  8.1585862E+05
  1.4175000E+04  8.0587544E+05
  1.4225000E+04  7.9583469E+05
  1.4274994E+04  7.8597419E+05
  1.4325001E+04  7.7628881E+05
  1.4374998E+04  7.6695200E+05
  1.4424999E+04  7.5092512E+05
  1.4475000E+04  7.4809269E+05
  1.4524997E+04  7.3539181E+05
  1.4569999E+04  7.3091262E+05
  1.4620000E+04  7.4067688E+05
  1.4674998E+04  7.4632788E+05
  1.4725000E+04  7.2091519E+05
  1.4775002E+04  6.9852050E+05
  1.4824998E+04  6.8224981E+05
  1.4874996E+04  6.6547700E+05
  1.4924997E+04  6.5558838E+05
  1.4974999E+04  6.5062931E+05
  1.5024999E+04  6.3493862E+05
  1.5075000E+04  6.3363594E+05
  1.5124999E+04  6.2871975E+05
  1.5175000E+04  6.2755162E+05
  1.5225002E+04  6.3926669E+05
  1.5274998E+04  6.0594788E+05
  1.5324995E+04  6.0807675E+05
  1.5374997E+04  6.2178156E+05
  1.5425001E+04  5.8807106E+05
  1.5474996E+04  6.1226950E+05
  1.5524994E+04  6.0952625E+05
  1.5575001E+04  5.6335225E+05
  1.5624998E+04  6.0395931E+05
  1.5674997E+04  5.8137119E+05
  1.5724994E+04  5.5076512E+05
  1.5774996E+04  5.8327606E+05
  1.5825001E+04  5.7696206E+05
  1.5874995E+04  5.2137259E+05
  1.5925002E+04  5.5952525E+05
  1.5975001E+04  5.5908250E+05
  1.6049998E+04  5.4581650E+05
  1.6150001E+04  5.1379062E+05
  1.6249997E+04  5.2556100E+05
  1.6350000E+04  5.0973128E+05
  1.6449996E+04  4.8086362E+05
  1.6549998E+04  4.9157556E+05
  1.6649994E+04  4.8084391E+05
  1.6749998E+04  4.6640006E+05
  1.6849998E+04  4.4035381E+05
  1.6950000E+04  4.5028272E+05
  1.7049996E+04  4.4043766E+05
  1.7150000E+04  4.3152441E+05
  1.7249992E+04  4.2149856E+05
  1.7349994E+04  3.9275159E+05
  1.7449992E+04  4.0275550E+05
  1.7550000E+04  3.9556988E+05
  1.7649998E+04  3.8740484E+05
  1.7749994E+04  3.7990066E+05
  1.7849994E+04  3.7211062E+05
  1.7949998E+04  3.6505438E+05
  1.8050002E+04  3.5640491E+05
  1.8150002E+04  3.3460025E+05
  1.8249994E+04  3.4097462E+05
  1.8349992E+04  3.3649569E+05
  1.8449992E+04  3.2989169E+05
  1.8549998E+04  3.2291856E+05
  1.8650002E+04  3.1676525E+05
  1.8750002E+04  2.9517391E+05
  1.8850000E+04  3.0388625E+05
  1.8950004E+04  2.9848331E+05
  1.9049996E+04  2.9325653E+05
  1.9149998E+04  2.8763475E+05
  1.9249992E+04  2.8210425E+05
  1.9350000E+04  2.7658231E+05
  1.9449992E+04  2.5897092E+05
  1.9550002E+04  2.6627725E+05
  1.9649992E+04  2.6150273E+05
  1.9749992E+04  2.5647564E+05
  1.9849992E+04  2.5188327E+05
  1.9950002E+04  2.4723402E+05
  2.0050002E+04  2.4271270E+05
  2.0149996E+04  2.3828667E+05
  2.0249994E+04  2.3393584E+05
  2.0349994E+04  2.2967619E+05
  2.0449996E+04  2.2558019E+05
  2.0550000E+04  2.2153005E+05
  2.0649992E+04  2.1749725E+05
  2.0749998E+04  2.1368181E+05
  2.0849992E+04  2.0991859E+05
  2.0950004E+04  2.0621698E+05
  2.1050002E+04  2.0256819E+05
  2.1149992E+04  1.9879959E+05
  2.1250000E+04  1.9534739E+05
  2.1350002E+04  1.9195900E+05
  2.1449996E+04  1.8884161E+05
  2.1550006E+04  1.8556942E+05
  2.1649994E+04  1.7426788E+05
  2.1750002E+04  1.7905191E+05
  2.1849998E+04  1.7633423E+05
  2.1950002E+04  1.7339706E+05
  2.2050000E+04  1.7044177E+05
  2.2149996E+04  1.6743491E+05
  2.2249998E+04  1.6484080E+05
  2.2350004E+04  1.6209898E+05
  2.2449990E+04  1.5943295E+05
  2.2549994E+04  1.5674855E+05
  2.2650000E+04  1.5423373E+05
  2.2750000E+04  1.5171770E+05
  2.2850000E+04  1.5009639E+05
  2.2950004E+04  1.4979066E+05
  2.3050000E+04  1.4638798E+05
  2.3149996E+04  1.4313686E+05
  2.3250000E+04  1.4010462E+05
  2.3349996E+04  1.3719162E+05
  2.3449994E+04  1.3452811E+05
  2.3550002E+04  1.3212955E+05
  2.3649988E+04  1.2992984E+05
  2.3750000E+04  1.2828509E+05
  2.3849990E+04  1.2621874E+05
  2.3950002E+04  1.2425948E+05
  2.4050006E+04  1.2197393E+05
  2.4149992E+04  1.1975289E+05
  2.4249990E+04  1.2058831E+05
  2.4349990E+04  1.1652570E+05
  2.4450002E+04  1.1469976E+05
  2.4549990E+04  1.1517007E+05
  2.4649992E+04  1.1217711E+05
  2.4749992E+04  1.1055205E+05
  2.4850006E+04  1.1118448E+05
  2.4950000E+04  1.0479331E+05
  2.5050006E+04  1.0813578E+05
  2.5149994E+04  1.0639798E+05
  2.5249998E+04  1.0009854E+05
  2.5350004E+04  1.0307978E+05
  2.5449988E+04  1.0184191E+05
  2.5549998E+04  1.0003219E+05
  2.5649990E+04  9.4168531E+04
  2.5749990E+04  9.7259992E+04
  2.5849994E+04  9.5952609E+04
  2.5949990E+04  9.4635797E+04
  2.6049996E+04  9.2728367E+04
  2.6149998E+04  8.7604844E+04
  2.6249988E+04  8.5894523E+04
  2.6350008E+04  8.9015719E+04
  2.6449996E+04  8.8038867E+04
  2.6549994E+04  8.6759406E+04
  2.6649994E+04  8.5369977E+04
  2.6749988E+04  8.0327102E+04
  2.6849986E+04  8.3020086E+04
  2.6949986E+04  8.2015477E+04
  2.7050002E+04  8.0852875E+04
  2.7149998E+04  7.9757328E+04
  2.7249994E+04  7.8651438E+04
  2.7350006E+04  7.7564266E+04
  2.7450004E+04  7.6474992E+04
  2.7549996E+04  7.2282266E+04
  2.7649982E+04  7.3648969E+04
  2.7750004E+04  7.3414875E+04
  2.7850000E+04  7.2420164E+04
  2.7949992E+04  7.1443945E+04
  2.8049994E+04  7.0481250E+04
  2.8150002E+04  6.9531891E+04
  2.8250006E+04  6.8600219E+04
  2.8350000E+04  6.7693414E+04
  2.8450000E+04  6.6766500E+04
  2.8550002E+04  6.5906781E+04
  2.8650002E+04  6.4738945E+04
  2.8749982E+04  6.1302254E+04
  2.8849998E+04  6.3294105E+04
  2.8949986E+04  6.2448430E+04
  2.9049994E+04  6.1702320E+04
  2.9149986E+04  6.0846477E+04
  2.9249984E+04  6.0108773E+04
  2.9349980E+04  5.9335164E+04
  2.9450000E+04  5.8574703E+04
  2.9550004E+04  5.7827348E+04
  2.9649982E+04  5.7087457E+04
  2.9749992E+04  5.6361496E+04
  2.9849994E+04  5.5648027E+04
  2.9949984E+04  5.4940188E+04
  3.0049996E+04  5.4245750E+04
  3.0149994E+04  5.3560672E+04
  3.0249994E+04  5.2886066E+04
  3.0349996E+04  5.0470762E+04
  3.0449996E+04  5.0823984E+04
  3.0549996E+04  5.0931223E+04
  3.0649996E+04  5.0313488E+04
  3.0749994E+04  4.9690023E+04
  3.0849996E+04  4.9040797E+04
  3.0949994E+04  4.8474035E+04
  3.1049996E+04  4.7877461E+04
  3.1149996E+04  4.7283840E+04
  3.1249996E+04  4.6705414E+04
  3.1349996E+04  4.6155359E+04
  3.1449996E+04  4.5582246E+04
  3.1549998E+04  4.5056422E+04
  3.1649996E+04  4.4517176E+04
  3.1749998E+04  4.3975480E+04
  3.1849996E+04  4.3462164E+04
  3.1949994E+04  4.2941488E+04
  3.2099996E+04  4.2180324E+04
  3.2299992E+04  4.1195230E+04
  3.2499994E+04  4.0235641E+04
  3.2699996E+04  3.9300855E+04
  3.2899996E+04  3.7392000E+04
  3.3099996E+04  3.7682496E+04
  3.3299992E+04  3.6864621E+04
  3.3499996E+04  3.5940629E+04
  3.3699996E+04  3.5023250E+04
  3.3899996E+04  3.4166691E+04
  3.4099996E+04  3.3354574E+04
  3.4299996E+04  3.2594693E+04
  3.4499992E+04  3.1881379E+04
  3.4699996E+04  3.1207188E+04
  3.4899996E+04  3.0497084E+04
  3.5099996E+04  2.9883832E+04
  3.5299996E+04  2.9252645E+04
  3.5499996E+04  2.8537641E+04
  3.5699992E+04  2.7881949E+04
  3.5899992E+04  2.7686596E+04
  3.6099996E+04  2.6666611E+04
  3.6299992E+04  2.6559230E+04
  3.6499992E+04  2.5527273E+04
  3.6699992E+04  2.5491084E+04
  3.6899992E+04  2.4421109E+04
  3.7099996E+04  2.4434697E+04
  3.7299996E+04  2.3706205E+04
  3.7499992E+04  2.2645609E+04
  3.7699996E+04  2.2979705E+04
  3.7899996E+04  2.2527436E+04
  3.8099992E+04  2.1738889E+04
  3.8299996E+04  2.1429873E+04
  3.8499996E+04  2.1206186E+04
  3.8699996E+04  2.0774582E+04
  3.8899992E+04  2.0349135E+04
  3.9099996E+04  1.9477109E+04
  3.9299992E+04  1.9589949E+04
  3.9499992E+04  1.9203000E+04
  3.9699992E+04  1.8841098E+04
  3.9900000E+04  1.8468133E+04
  4.0099996E+04  1.7961463E+04
  4.0299992E+04  1.7466135E+04
  4.0499996E+04  1.7027201E+04
  4.0699992E+04  1.7109305E+04
  4.0899992E+04  1.6790410E+04
  4.1099996E+04  1.6481863E+04
  4.1299996E+04  1.6175682E+04
  4.1499992E+04  1.5873234E+04
  4.1699992E+04  1.5183433E+04
  4.1899996E+04  1.5290873E+04
  4.2099996E+04  1.5016032E+04
  4.2299992E+04  1.4747708E+04
  4.2499996E+04  1.4481097E+04
  4.2699992E+04  1.4221458E+04
  4.2899992E+04  1.3966669E+04
  4.3099996E+04  1.3717273E+04
  4.3299996E+04  1.3473802E+04
  4.3499992E+04  1.3236120E+04
  4.3699996E+04  1.2699541E+04
  4.3899996E+04  1.2735917E+04
  4.4099992E+04  1.2551602E+04
  4.4299992E+04  1.2334036E+04
  4.4499996E+04  1.2120468E+04
  4.4699996E+04  1.1972641E+04
  4.4899996E+04  1.1766287E+04
  4.5099992E+04  1.1566651E+04
  4.5299992E+04  1.1367739E+04
  4.5499996E+04  1.1177080E+04
  4.5699992E+04  1.0987595E+04
  4.5899996E+04  1.0802688E+04
  4.6099996E+04  1.0623390E+04
  4.6299992E+04  1.0445664E+04
  4.6499988E+04  1.0077040E+04
  4.6699992E+04  9.8226543E+03
  4.6899992E+04  9.9238721E+03
  4.7099992E+04  9.7738252E+03
  4.7299992E+04  9.6146982E+03
  4.7499996E+04  9.4557715E+03
  4.7699992E+04  9.3039131E+03
  4.7899992E+04  9.1553008E+03
  4.8099996E+04  9.0083125E+03
  4.8299992E+04  8.8639561E+03
  4.8499992E+04  8.7231992E+03
  4.8700000E+04  8.5844473E+03
  4.8899992E+04  8.4491797E+03
  4.9099988E+04  8.3153271E+03
  4.9299988E+04  8.1853364E+03
  4.9499996E+04  8.0576572E+03
  4.9699992E+04  7.9322539E+03
  4.9899988E+04  7.8090791E+03
  5.0099996E+04  7.6885669E+03
  5.0299996E+04  7.5701968E+03
  5.0499996E+04  7.4543970E+03
  5.0699996E+04  7.3411191E+03
  5.0899992E+04  7.2293887E+03
  5.1099992E+04  7.1136670E+03
  5.1299996E+04  6.8309282E+03
  5.1499988E+04  6.9041230E+03
  5.1699996E+04  6.8032515E+03
  5.1899992E+04  6.7019482E+03
  5.2099992E+04  6.6024385E+03
  5.2299996E+04  6.5046890E+03
  5.2499996E+04  6.4086709E+03
  5.2699996E+04  6.3143516E+03
  5.2899992E+04  6.2221309E+03
  5.3099988E+04  6.1311182E+03
  5.3299988E+04  6.0421367E+03
  5.3499992E+04  5.9543110E+03
  5.3699992E+04  5.8684561E+03
  5.3899992E+04  5.7841221E+03
  5.4099992E+04  5.7012827E+03
  5.4299984E+04  5.6199121E+03
  5.4499988E+04  5.5395781E+03
  5.4699996E+04  5.4610674E+03
  5.4899992E+04  5.3839521E+03
  5.5099992E+04  5.3082041E+03
  5.5299988E+04  5.2338027E+03
  5.5499988E+04  5.1607222E+03
  5.5699992E+04  5.0881675E+03
  5.5899992E+04  5.0172847E+03
  5.6099988E+04  4.9484258E+03
  5.6299996E+04  4.8804146E+03
  5.6499988E+04  4.8132441E+03
  5.6699988E+04  4.7472695E+03
  5.6899992E+04  4.6824712E+03
  5.7099996E+04  4.6188311E+03
  5.7299988E+04  4.5563306E+03
  5.7499988E+04  4.4949482E+03
  5.7699988E+04  4.4343057E+03
  5.7899996E+04  4.3747490E+03
  5.8099988E+04  4.3162637E+03
  5.8299996E+04  4.2588267E+03
  5.8499992E+04  4.2136382E+03
  5.8699988E+04  4.1578286E+03
  5.8899988E+04  4.0971475E+03
  5.9099992E+04  3.9472393E+03
  5.9299988E+04  3.9939773E+03
  5.9499996E+04  3.9431216E+03
  5.9699988E+04  3.8921855E+03
  5.9899992E+04  3.8411711E+03
  6.0099992E+04  3.7917444E+03
  6.0299992E+04  3.7428879E+03
  6.0499988E+04  3.6945942E+03
  6.0699992E+04  3.6471794E+03
  6.0899992E+04  3.6006301E+03
  6.1099988E+04  3.5542905E+03
  6.1299992E+04  3.5094341E+03
  6.1499988E+04  3.4650867E+03
  6.1699988E+04  3.4212390E+03
  6.1899996E+04  3.3781965E+03
  6.2099996E+04  3.3359487E+03
  6.2299988E+04  3.2938650E+03
  6.2499992E+04  3.2531702E+03
  6.2699988E+04  3.2126223E+03
  6.2899996E+04  3.1728257E+03
  6.3099984E+04  3.1334705E+03
  6.3299996E+04  3.0948452E+03
  6.3499984E+04  3.0569434E+03
  6.3699984E+04  3.0197502E+03
  6.3900000E+04  2.9826667E+03
  6.4199992E+04  2.9286719E+03
  6.4599984E+04  2.8581204E+03
  6.4999992E+04  2.7898145E+03
  6.5399992E+04  2.7235786E+03
  6.5799992E+04  2.6592126E+03
  6.6199984E+04  2.5965552E+03
  6.6599984E+04  2.5361526E+03
  6.6999992E+04  2.4773230E+03
  6.7399992E+04  2.4201562E+03
  6.7799992E+04  2.3646057E+03
  6.8199992E+04  2.3107039E+03
  6.8599992E+04  2.2580728E+03
  6.8999984E+04  2.2071589E+03
  6.9399984E+04  2.1576387E+03
  6.9800000E+04  2.1095962E+03
  7.0199992E+04  2.0628965E+03
  7.0599984E+04  2.0172849E+03
  7.0999977E+04  1.9731622E+03
  7.1399977E+04  1.9298982E+03
  7.1799984E+04  1.8880779E+03
  7.2199984E+04  1.8471324E+03
  7.2600000E+04  1.8075861E+03
  7.2999984E+04  1.7691769E+03
  7.3400000E+04  1.7315831E+03
  7.3799984E+04  1.6950077E+03
  7.4199992E+04  1.6593787E+03
  7.4599992E+04  1.6140931E+03
  7.5000000E+04  1.5709128E+03
  7.5399992E+04  1.5581923E+03
  7.5799992E+04  1.5261368E+03
  7.6199984E+04  1.4949773E+03
  7.6599992E+04  1.4645464E+03
  7.6999992E+04  1.4349083E+03
  7.7399992E+04  1.4059835E+03
  7.7799984E+04  1.3778341E+03
  7.8199984E+04  1.3503616E+03
  7.8599984E+04  1.3235697E+03
  7.8999984E+04  1.2974227E+03
  7.9399984E+04  1.2719434E+03
  7.9800000E+04  1.2470585E+03
  8.0199992E+04  1.2227928E+03
  8.0599984E+04  1.1991123E+03
  8.0999992E+04  1.1760027E+03
  8.1399977E+04  1.1534340E+03
  8.1799984E+04  1.1314099E+03
  8.2199984E+04  1.1099188E+03
  8.2599992E+04  1.0889303E+03
  8.2999984E+04  1.0684337E+03
  8.3400000E+04  1.0483474E+03
  8.3799992E+04  1.0287323E+03
  8.4199992E+04  1.0096953E+03
  8.4599977E+04  9.9110590E+02
  8.4999977E+04  9.7288684E+02
  8.5399984E+04  9.5504688E+02
  8.5799984E+04  9.3765955E+02
  8.6199992E+04  9.2063379E+02
  8.6599992E+04  9.0400977E+02
  8.6999984E+04  8.8776300E+02
  8.7399992E+04  8.7186896E+02
  8.7799992E+04  8.5633606E+02
  8.8199984E+04  8.4112567E+02
  8.8599977E+04  8.2626141E+02
  8.8999992E+04  8.1173529E+02
  8.9399977E+04  7.9752612E+02
  8.9799977E+04  7.8361133E+02
  9.0199984E+04  7.7001459E+02
  9.0599984E+04  7.5670001E+02
  9.0999992E+04  7.4366156E+02
  9.1400000E+04  7.3092230E+02
  9.1799969E+04  7.1844818E+02
  9.2199969E+04  7.0624670E+02
  9.2599984E+04  6.9428448E+02
  9.3000000E+04  6.8258466E+02
  9.3399984E+04  6.7112854E+02
  9.3799984E+04  6.5991058E+02
  9.4199977E+04  6.4892615E+02
  9.4599984E+04  6.3817035E+02
  9.4999969E+04  6.2763904E+02
  9.5399984E+04  6.1730060E+02
  9.5799984E+04  6.0720441E+02
  9.6199992E+04  5.9730603E+02
  9.6599984E+04  5.8760205E+02
  9.7000000E+04  5.7810101E+02
  9.7399977E+04  5.6878693E+02
  9.7799984E+04  5.5965533E+02
  9.8199977E+04  5.5070325E+02
  9.8599977E+04  5.4193927E+02
  9.8999992E+04  5.3334747E+02
  9.9399984E+04  5.2492499E+02
  9.9799977E+04  5.1665619E+02
  1.0019999E+05  5.0856192E+02
  1.9999991E+05  3.2671642E+01
  3.9999994E+05  2.0353808E+00
  5.9999981E+05  3.9879370E-01
  7.9999994E+05  1.2521672E-01
