  5.0599994E+02  1.3103868E-09
  5.1199994E+02  2.3475437E-09
  5.2000000E+02  4.4006385E-09
  5.2999994E+02  9.4367545E-09
  5.3999994E+02  1.9446761E-08
  5.4999988E+02  3.9390546E-08
  5.5999988E+02  7.7667472E-08
  5.6999988E+02  1.4967405E-07
  5.7999994E+02  2.8096923E-07
  5.8999988E+02  5.2238858E-07
  5.9999988E+02  9.4828391E-07
  6.0999988E+02  1.6924504E-06
  6.1999994E+02  2.9684973E-06
  6.2999988E+02  5.1242305E-06
  6.3999994E+02  8.7104390E-06
  6.4999994E+02  1.4603299E-05
  6.5799994E+02  2.1850408E-05
  6.6499988E+02  3.0848227E-05
  6.7499994E+02  4.9975311E-05
  6.8499988E+02  7.9963982E-05
  6.9499994E+02  1.2634913E-04
  7.0499988E+02  1.9700285E-04
  7.1599988E+02  3.1784357E-04
  7.2599994E+02  4.8472127E-04
  7.3499982E+02  7.0224854E-04
  7.4499994E+02  1.0496553E-03
  7.5499982E+02  1.5535416E-03
  7.6499994E+02  2.2771531E-03
  7.7499994E+02  3.3062887E-03
  7.8499982E+02  4.7576008E-03
  7.9499982E+02  6.7697796E-03
  8.0500000E+02  9.5825084E-03
  8.1499976E+02  1.3443225E-02
  8.2500000E+02  1.8695287E-02
  8.3499994E+02  2.5790356E-02
  8.4499994E+02  3.5319105E-02
  8.5499988E+02  4.8003234E-02
  8.6499994E+02  6.4771421E-02
  8.7499982E+02  8.6754374E-02
  8.8499982E+02  1.1550148E-01
  8.9499988E+02  1.5271460E-01
  9.0499994E+02  2.0048657E-01
  9.1499982E+02  1.2871163E+01
  9.2499988E+02  7.0883461E+01
  9.3499982E+02  1.0554858E+02
  9.4500000E+02  1.5145749E+02
  9.5500000E+02  2.1341370E+02
  9.6499988E+02  2.7267960E+02
  9.7499982E+02  2.7754721E+02
  9.8499976E+02  3.8164600E+02
  9.9499988E+02  4.2638809E+02
  1.0049999E+03  5.5076556E+02
  1.0149997E+03  6.5622668E+02
  1.0249998E+03  5.7106311E+02
  1.0349998E+03  8.8701562E+02
  1.0449998E+03  1.0615565E+03
  1.0549999E+03  1.2301809E+03
  1.0649999E+03  1.3633457E+03
  1.0750000E+03  1.6238782E+03
  1.0849996E+03  1.8488478E+03
  1.0949999E+03  2.0197585E+03
  1.1049999E+03  5.6873877E+03
  1.1149999E+03  9.3483301E+03
  1.1249999E+03  1.1935646E+04
  1.1349996E+03  1.4329923E+04
  1.1449999E+03  1.5930202E+04
  1.1549999E+03  1.6460080E+04
  1.1650000E+03  1.9725289E+04
  1.1749995E+03  2.1258424E+04
  1.1849996E+03  2.0342641E+04
  1.1949998E+03  1.2276253E+04
  1.2049996E+03  1.2258339E+04
  1.2149998E+03  2.8029375E+03
  1.2249996E+03  1.3545877E+04
  1.2349996E+03  2.8402590E+04
  1.2449998E+03  5.9712723E+04
  1.2549996E+03  1.5027947E+05
  1.2650000E+03  2.5069044E+05
  1.2749998E+03  1.2145039E+06
  1.2849995E+03  3.0096678E+06
  1.2949998E+03  4.0715695E+06
  1.3049995E+03  2.3981120E+06
  1.3149998E+03  6.0476095E+06
  1.3249998E+03  7.4561680E+06
  1.3349996E+03  6.9546295E+06
  1.3449995E+03  1.0237627E+07
  1.3549996E+03  9.7755260E+06
  1.3649999E+03  9.1533320E+06
  1.3749999E+03  1.0757959E+07
  1.3849996E+03  1.0069295E+07
  1.3949999E+03  1.1485098E+07
  1.4050001E+03  1.1915086E+07
  1.4149998E+03  1.0853085E+07
  1.4249998E+03  1.2725099E+07
  1.4350000E+03  1.1305634E+07
  1.4419998E+03  1.3549674E+07
  1.4469999E+03  1.6299777E+07
  1.4549994E+03  1.6238293E+07
  1.4650000E+03  1.3906440E+07
  1.4749995E+03  1.3759315E+07
  1.4849996E+03  1.5599154E+07
  1.4949998E+03  1.7399968E+07
  1.5049996E+03  1.8235260E+07
  1.5119995E+03  1.5626637E+07
  1.5169994E+03  1.6970344E+07
  1.5250001E+03  1.5297916E+07
  1.5349994E+03  1.3461995E+07
  1.5449994E+03  2.0026134E+07
  1.5549998E+03  1.7258968E+07
  1.5649999E+03  1.5346019E+07
  1.5750001E+03  1.9440642E+07
  1.5850000E+03  2.1136966E+07
  1.5949996E+03  2.3793852E+07
  1.6049999E+03  2.1918312E+07
  1.6150000E+03  2.0644960E+07
  1.6249996E+03  1.7364450E+07
  1.6350000E+03  1.9933034E+07
  1.6449996E+03  2.2089768E+07
  1.6549999E+03  1.5651785E+07
  1.6649993E+03  2.1825716E+07
  1.6720000E+03  1.2815444E+07
  1.6770001E+03  2.1772856E+07
  1.6849998E+03  2.4378690E+07
  1.6950000E+03  2.1083734E+07
  1.7049995E+03  2.0320690E+07
  1.7150000E+03  2.0893298E+07
  1.7249993E+03  2.0554654E+07
  1.7349994E+03  2.2571564E+07
  1.7449993E+03  2.2000526E+07
  1.7550001E+03  2.4920900E+07
  1.7649998E+03  1.9971520E+07
  1.7749995E+03  2.3387344E+07
  1.7849995E+03  2.2849030E+07
  1.7949999E+03  2.6418196E+07
  1.8050001E+03  2.4722460E+07
  1.8150001E+03  2.4232372E+07
  1.8249994E+03  2.3169338E+07
  1.8349993E+03  2.1793904E+07
  1.8449993E+03  1.9449882E+07
  1.8549998E+03  2.1324036E+07
  1.8650002E+03  2.1894440E+07
  1.8750001E+03  2.2391820E+07
  1.8850000E+03  2.2212248E+07
  1.8950002E+03  2.2818954E+07
  1.9049996E+03  2.1153512E+07
  1.9149999E+03  2.2729366E+07
  1.9249993E+03  2.2980230E+07
  1.9350001E+03  2.0935674E+07
  1.9449993E+03  2.3461978E+07
  1.9550002E+03  2.3135012E+07
  1.9670002E+03  2.4429630E+07
  1.9759990E+03  2.3925996E+07
  1.9839996E+03  2.3117114E+07
  1.9950001E+03  2.2184354E+07
  2.0050002E+03  2.1338972E+07
  2.0149996E+03  2.0801644E+07
  2.0249994E+03  2.0140212E+07
  2.0349995E+03  2.1325460E+07
  2.0449998E+03  2.2775940E+07
  2.0550000E+03  2.1654936E+07
  2.0649993E+03  2.1001402E+07
  2.0739993E+03  2.2881968E+07
  2.0780002E+03  2.3301312E+07
  2.0849993E+03  2.2737158E+07
  2.0950005E+03  2.1815130E+07
  2.1050002E+03  2.0452756E+07
  2.1149990E+03  2.0560078E+07
  2.1250000E+03  2.1333922E+07
  2.1350002E+03  1.7560066E+07
  2.1449998E+03  2.0026772E+07
  2.1550005E+03  2.0203610E+07
  2.1649995E+03  1.8855650E+07
  2.1750002E+03  1.8554384E+07
  2.1849998E+03  1.8942562E+07
  2.1950000E+03  2.0299060E+07
  2.2050000E+03  1.9289112E+07
  2.2149998E+03  1.7522456E+07
  2.2249998E+03  1.7117262E+07
  2.2350005E+03  1.9497106E+07
  2.2449990E+03  1.7310212E+07
  2.2549993E+03  1.6679945E+07
  2.2650000E+03  1.6777008E+07
  2.2750000E+03  1.7767476E+07
  2.2850000E+03  1.8565446E+07
  2.2950002E+03  1.7285204E+07
  2.3050000E+03  1.7171666E+07
  2.3149995E+03  1.6435154E+07
  2.3250000E+03  1.2036760E+07
  2.3349995E+03  1.4923354E+07
  2.3449993E+03  1.3367982E+07
  2.3550000E+03  1.6312298E+07
  2.3649988E+03  1.3611523E+07
  2.3750000E+03  1.4873265E+07
  2.3849990E+03  1.2423284E+07
  2.3950000E+03  1.4058925E+07
  2.4050005E+03  1.3290829E+07
  2.4149993E+03  1.3760212E+07
  2.4249990E+03  1.5391297E+07
  2.4349990E+03  1.4671742E+07
  2.4450000E+03  1.5787844E+07
  2.4549990E+03  1.5193123E+07
  2.4649990E+03  1.5248907E+07
  2.4749993E+03  1.4392008E+07
  2.4850005E+03  1.5080154E+07
  2.4950000E+03  1.4397402E+07
  2.5050005E+03  1.6589483E+07
  2.5129988E+03  1.4195322E+07
  2.5179990E+03  1.4291443E+07
  2.5249998E+03  1.3139827E+07
  2.5350007E+03  1.2954062E+07
  2.5449988E+03  1.2965788E+07
  2.5550000E+03  1.4421312E+07
  2.5649990E+03  1.4236190E+07
  2.5749990E+03  1.5475369E+07
  2.5849993E+03  1.5479512E+07
  2.5949990E+03  1.4929316E+07
  2.6049995E+03  1.4272402E+07
  2.6149998E+03  1.3881465E+07
  2.6249990E+03  1.5424501E+07
  2.6350007E+03  1.5463760E+07
  2.6449995E+03  1.7739074E+07
  2.6549998E+03  1.7535946E+07
  2.6649995E+03  1.5767974E+07
  2.6749988E+03  1.6613928E+07
  2.6849988E+03  1.6474603E+07
  2.6949988E+03  1.5597698E+07
  2.7050000E+03  1.6091420E+07
  2.7150000E+03  1.5104532E+07
  2.7249995E+03  1.5277139E+07
  2.7350007E+03  1.6573163E+07
  2.7450002E+03  1.3488361E+07
  2.7549998E+03  1.3903156E+07
  2.7649983E+03  1.4503453E+07
  2.7750005E+03  1.5583376E+07
  2.7850000E+03  1.4408894E+07
  2.7949993E+03  8.4961530E+06
  2.8049995E+03  9.9875350E+06
  2.8150002E+03  1.5691474E+07
  2.8250007E+03  1.6519708E+07
  2.8350000E+03  1.5906534E+07
  2.8450002E+03  1.5303030E+07
  2.8550005E+03  1.4809087E+07
  2.8650000E+03  1.6017824E+07
  2.8749983E+03  1.5542457E+07
  2.8850000E+03  1.5836852E+07
  2.8949988E+03  1.5195377E+07
  2.9099988E+03  1.6923976E+07
  2.9299983E+03  1.6227179E+07
  2.9499990E+03  1.6115368E+07
  2.9700005E+03  1.6285133E+07
  2.9899980E+03  1.6486526E+07
  3.0099995E+03  1.6722137E+07
  3.0299995E+03  1.6485131E+07
  3.0499995E+03  1.6376637E+07
  3.0699995E+03  1.6264470E+07
  3.0899995E+03  1.6487907E+07
  3.1099995E+03  1.6021120E+07
  3.1299998E+03  1.5984721E+07
  3.1499995E+03  1.6177581E+07
  3.1699995E+03  1.6058820E+07
  3.1899995E+03  1.5356076E+07
  3.2099998E+03  1.5728591E+07
  3.2299993E+03  1.5334419E+07
  3.2499993E+03  1.5541358E+07
  3.2699995E+03  1.5635560E+07
  3.2899995E+03  1.5709715E+07
  3.3099998E+03  1.5778751E+07
  3.3299993E+03  1.5465426E+07
  3.3499995E+03  1.5247119E+07
  3.3699995E+03  1.5205005E+07
  3.3899993E+03  1.5057431E+07
  3.4099993E+03  1.5254644E+07
  3.4299995E+03  1.5192443E+07
  3.4499993E+03  1.5072224E+07
  3.4699998E+03  1.4870095E+07
  3.4899993E+03  1.4798611E+07
  3.5099995E+03  1.4973064E+07
  3.5299995E+03  1.4947267E+07
  3.5499995E+03  1.4964874E+07
  3.5699995E+03  1.4641478E+07
  3.5899995E+03  1.4537417E+07
  3.6099995E+03  1.4485364E+07
  3.6299993E+03  1.4476346E+07
  3.6399993E+03  1.4400535E+07
  3.6499995E+03  1.4694384E+07
  3.6699993E+03  1.4168737E+07
  3.6899995E+03  1.2963998E+07
  3.7099995E+03  1.4385858E+07
  3.7299998E+03  1.4920670E+07
  3.7499993E+03  1.8708468E+07
  3.7699993E+03  1.9663024E+07
  3.7899995E+03  2.4624566E+07
  3.8099993E+03  2.9280382E+07
  3.8299998E+03  2.2802450E+07
  3.8499995E+03  3.2706490E+07
  3.8699995E+03  3.7602588E+07
  3.8899995E+03  1.9782512E+07
  3.9099995E+03  3.7374468E+07
  3.9299993E+03  3.3762788E+07
  3.9499993E+03  3.6769692E+07
  3.9699998E+03  1.8513160E+07
  3.9899995E+03  3.5705468E+07
  4.0099995E+03  4.0677108E+07
  4.0299993E+03  4.0678260E+07
  4.0499993E+03  4.0176600E+07
  4.0699993E+03  3.7854896E+07
  4.0899995E+03  2.8235870E+07
  4.1099995E+03  2.1118254E+07
  4.1299995E+03  3.5380088E+07
  4.1499990E+03  3.7598756E+07
  4.1699990E+03  3.7392056E+07
  4.1899995E+03  3.6846732E+07
  4.2099995E+03  3.6557016E+07
  4.2299995E+03  3.5667936E+07
  4.2499995E+03  3.5344980E+07
  4.2699990E+03  3.4301716E+07
  4.2899995E+03  3.4220448E+07
  4.3100000E+03  3.1611888E+07
  4.3299995E+03  2.2866318E+07
  4.3499995E+03  1.9334516E+07
  4.3699995E+03  3.0808194E+07
  4.3899995E+03  3.1793748E+07
  4.4099995E+03  3.1626260E+07
  4.4299995E+03  3.1333396E+07
  4.4499995E+03  3.1465986E+07
  4.4699995E+03  3.1047602E+07
  4.4899995E+03  3.0348704E+07
  4.5099990E+03  3.0445076E+07
  4.5299995E+03  2.9819198E+07
  4.5499990E+03  2.9100612E+07
  4.5699995E+03  2.9369536E+07
  4.5899990E+03  2.8706044E+07
  4.6099990E+03  2.8851366E+07
  4.6299990E+03  2.8057234E+07
  4.6499990E+03  2.8091484E+07
  4.6699990E+03  2.7713372E+07
  4.6899990E+03  2.7089892E+07
  4.7099995E+03  2.6038662E+07
  4.7299990E+03  2.6640616E+07
  4.7499995E+03  2.6363590E+07
  4.7699995E+03  2.5966418E+07
  4.7899990E+03  2.5567632E+07
  4.8099995E+03  2.4878596E+07
  4.8299995E+03  2.3484548E+07
  4.8499990E+03  1.7583028E+07
  4.8700000E+03  1.4089658E+07
  4.8899990E+03  2.1921832E+07
  4.9099990E+03  2.3312460E+07
  4.9299990E+03  2.3142938E+07
  4.9499995E+03  2.3176040E+07
  4.9699995E+03  2.3135048E+07
  4.9899990E+03  2.2690874E+07
  5.0099995E+03  2.2108750E+07
  5.0299995E+03  2.2177850E+07
  5.0499995E+03  2.1750026E+07
  5.0699995E+03  2.1784966E+07
  5.0899995E+03  2.1538196E+07
  5.1099990E+03  2.1300128E+07
  5.1299995E+03  2.1003134E+07
  5.1499985E+03  2.0655404E+07
  5.1700000E+03  2.0164344E+07
  5.1899990E+03  1.9982974E+07
  5.2099990E+03  1.9982704E+07
  5.2299995E+03  1.9574132E+07
  5.2499995E+03  1.9659784E+07
  5.2699995E+03  1.9028116E+07
  5.2899990E+03  1.9202046E+07
  5.3099995E+03  1.8825880E+07
  5.3299990E+03  1.8554432E+07
  5.3499995E+03  1.8607848E+07
  5.3699995E+03  1.8306072E+07
  5.3899995E+03  1.8137038E+07
  5.4099990E+03  1.7828236E+07
  5.4299990E+03  1.7714636E+07
  5.4499990E+03  1.7601008E+07
  5.4699995E+03  1.7413214E+07
  5.4899995E+03  1.7263498E+07
  5.5099995E+03  1.7079154E+07
  5.5299985E+03  1.6840558E+07
  5.5499990E+03  1.6727185E+07
  5.5699990E+03  1.6511034E+07
  5.5899995E+03  1.6363546E+07
  5.6099990E+03  1.6218886E+07
  5.6299995E+03  1.6061484E+07
  5.6499990E+03  1.5876229E+07
  5.6699990E+03  1.5689823E+07
  5.6899995E+03  1.5558233E+07
  5.7099995E+03  1.5398310E+07
  5.7299990E+03  1.5268364E+07
  5.7499990E+03  1.5080364E+07
  5.7699990E+03  1.4936380E+07
  5.7899995E+03  1.4770770E+07
  5.8099985E+03  1.4628759E+07
  5.8300000E+03  1.4484102E+07
  5.8499990E+03  1.4339686E+07
  5.8699985E+03  1.4176711E+07
  5.8899985E+03  1.3919518E+07
  5.9099995E+03  1.3897218E+07
  5.9299985E+03  1.3764764E+07
  5.9499995E+03  1.3598874E+07
  5.9699990E+03  1.3479316E+07
  5.9899990E+03  1.3312251E+07
  6.0099990E+03  1.3182297E+07
  6.0299995E+03  1.3078175E+07
  6.0499990E+03  1.2945659E+07
  6.0699990E+03  1.2832174E+07
  6.0899995E+03  1.2697586E+07
  6.1099985E+03  1.2566737E+07
  6.1299995E+03  1.2423914E+07
  6.1499985E+03  1.2160938E+07
  6.1699985E+03  1.2177987E+07
  6.1900000E+03  1.2091276E+07
  6.2099995E+03  1.1974962E+07
  6.2299985E+03  1.1842281E+07
  6.2499990E+03  1.1626315E+07
  6.2699985E+03  1.1636150E+07
  6.2900000E+03  1.1525588E+07
  6.3099985E+03  1.1382473E+07
  6.3299995E+03  1.1291801E+07
  6.3499985E+03  1.1069412E+07
  6.3699985E+03  1.1000602E+07
  6.3899995E+03  1.0966501E+07
  6.4099990E+03  1.0825502E+07
  6.4299985E+03  1.0738833E+07
  6.4499985E+03  1.0550122E+07
  6.4699990E+03  1.0518226E+07
  6.4899990E+03  1.0345312E+07
  6.5099985E+03  1.0179132E+07
  6.5299990E+03  9.7872740E+06
  6.5499985E+03  8.3289160E+06
  6.5699985E+03  6.6844690E+06
  6.5899995E+03  9.1652940E+06
  6.6099985E+03  9.6533510E+06
  6.6299990E+03  9.7045930E+06
  6.6499985E+03  9.6625780E+06
  6.6699995E+03  9.5942040E+06
  6.6899990E+03  9.5237980E+06
  6.7099995E+03  9.4535240E+06
  6.7299990E+03  9.3555890E+06
  6.7499995E+03  9.2791740E+06
  6.7699985E+03  9.2089960E+06
  6.7899995E+03  9.1230910E+06
  6.8099995E+03  9.0424310E+06
  6.8300000E+03  8.9525340E+06
  6.8499985E+03  8.8755460E+06
  6.8699985E+03  8.8020930E+06
  6.8899985E+03  8.7245430E+06
  6.9099990E+03  8.6457310E+06
  6.9299995E+03  8.5664340E+06
  6.9499990E+03  8.4921290E+06
  6.9699985E+03  8.4148310E+06
  6.9899985E+03  8.3468660E+06
  7.0099985E+03  8.2458620E+06
  7.0299985E+03  8.1902760E+06
  7.0499990E+03  8.1223975E+06
  7.0699980E+03  8.0570785E+06
  7.0899990E+03  7.9887825E+06
  7.1099990E+03  7.8309860E+06
  7.1299995E+03  7.8305185E+06
  7.1499990E+03  7.7673035E+06
  7.1699995E+03  7.7063035E+06
  7.1899985E+03  7.6391360E+06
  7.2099985E+03  7.5781285E+06
  7.2299980E+03  7.5059800E+06
  7.2499990E+03  7.4356490E+06
  7.2699995E+03  7.3882130E+06
  7.2899990E+03  7.3145605E+06
  7.3099980E+03  7.2530485E+06
  7.3299980E+03  7.1994615E+06
  7.3499980E+03  7.1430200E+06
  7.3699985E+03  7.0844330E+06
  7.3899995E+03  7.0180315E+06
  7.4099985E+03  6.9236350E+06
  7.4299995E+03  6.8714215E+06
  7.4500000E+03  6.8263660E+06
  7.4700000E+03  6.7427975E+06
  7.4899990E+03  6.7091895E+06
  7.5099985E+03  6.6656360E+06
  7.5299995E+03  6.6186405E+06
  7.5499980E+03  6.5714225E+06
  7.5699985E+03  6.5147720E+06
  7.5899990E+03  6.4623730E+06
  7.6099980E+03  6.4110570E+06
  7.6299995E+03  6.3568905E+06
  7.6499995E+03  6.2999255E+06
  7.6699980E+03  6.2420430E+06
  7.6899990E+03  6.1980570E+06
  7.7099995E+03  6.1395150E+06
  7.7299985E+03  6.1027710E+06
  7.7499990E+03  6.0517465E+06
  7.7700000E+03  5.8798030E+06
  7.7900000E+03  5.9583355E+06
  7.8099995E+03  5.9093785E+06
  7.8299980E+03  5.8551725E+06
  7.8499980E+03  5.7959910E+06
  7.8699995E+03  5.7398490E+06
  7.8900000E+03  5.6857435E+06
  7.9099995E+03  5.6587530E+06
  7.9300000E+03  5.6228080E+06
  7.9499985E+03  5.5516745E+06
  7.9699990E+03  5.5448005E+06
  7.9900000E+03  5.4378070E+06
  8.0099980E+03  5.4536760E+06
  8.0299985E+03  5.4081315E+06
  8.0500000E+03  5.3696320E+06
  8.0699985E+03  5.3248220E+06
  8.0899990E+03  5.2849675E+06
  8.1099995E+03  5.2459870E+06
  8.1299976E+03  5.2084185E+06
  8.1499976E+03  5.1684440E+06
  8.1699980E+03  5.1289770E+06
  8.1899985E+03  5.0469270E+06
  8.2099990E+03  5.0337530E+06
  8.2300000E+03  4.9909030E+06
  8.2500000E+03  4.9674385E+06
  8.2700000E+03  4.9695670E+06
  8.2899980E+03  4.9255535E+06
  8.3099990E+03  4.8864170E+06
  8.3299980E+03  4.8038770E+06
  8.3500000E+03  4.7626580E+06
  8.3699990E+03  4.7056920E+06
  8.3899990E+03  4.6130970E+06
  8.4099971E+03  4.5354030E+06
  8.4300000E+03  4.4759375E+06
  8.4499990E+03  4.4109420E+06
  8.4699980E+03  4.2925185E+06
  8.4899980E+03  4.4350255E+06
  8.5099990E+03  4.1421445E+06
  8.5299990E+03  4.4810425E+06
  8.5499990E+03  3.8872730E+06
  8.5699990E+03  4.5815230E+06
  8.5900000E+03  4.1266185E+06
  8.6099980E+03  4.0236785E+06
  8.6299990E+03  4.6465275E+06
  8.6499990E+03  4.3404265E+06
  8.6699990E+03  3.5506862E+06
  8.6899990E+03  4.4355385E+06
  8.7099971E+03  4.6845440E+06
  8.7299990E+03  4.3951425E+06
  8.7499980E+03  3.4348398E+06
  8.7699980E+03  4.1513628E+06
  8.7899980E+03  4.6071110E+06
  8.8099990E+03  4.6472440E+06
  8.8299980E+03  4.4651855E+06
  8.8499980E+03  3.9019530E+06
  8.8699980E+03  3.3007678E+06
  8.8899990E+03  4.2203045E+06
  8.9099971E+03  4.4685935E+06
  8.9299980E+03  4.5125090E+06
  8.9499980E+03  4.5194605E+06
  8.9699990E+03  4.4094585E+06
  8.9899990E+03  4.1210030E+06
  9.0099980E+03  3.2238045E+06
  9.0299990E+03  3.5354348E+06
  9.0499990E+03  4.1353560E+06
  9.0699980E+03  4.2104325E+06
  9.0899990E+03  4.2060020E+06
  9.1099980E+03  4.2761295E+06
  9.1299980E+03  4.2671985E+06
  9.1499980E+03  4.2392540E+06
  9.1699980E+03  4.1621705E+06
  9.1899990E+03  4.0104620E+06
  9.2099990E+03  3.6423182E+06
  9.2299980E+03  2.8181642E+06
  9.2499980E+03  3.4913358E+06
  9.2699971E+03  3.7955740E+06
  9.2899990E+03  3.9830842E+06
  9.3099980E+03  4.0026538E+06
  9.3299990E+03  3.9863375E+06
  9.3499980E+03  3.9704000E+06
  9.3699990E+03  3.9469120E+06
  9.3900000E+03  3.8905385E+06
  9.4099980E+03  3.8117232E+06
  9.4299971E+03  3.8445242E+06
  9.4499990E+03  3.8147045E+06
  9.4700000E+03  3.7703935E+06
  9.4899980E+03  3.7028562E+06
  9.5100000E+03  3.5625260E+06
  9.5300000E+03  3.1872580E+06
  9.5500000E+03  2.5508138E+06
  9.5699990E+03  3.2220798E+06
  9.5899980E+03  3.4923855E+06
  9.6099980E+03  3.5414895E+06
  9.6299990E+03  3.5152855E+06
  9.6499990E+03  3.5544285E+06
  9.6699980E+03  3.5111430E+06
  9.6899980E+03  3.5089248E+06
  9.7100000E+03  3.5023690E+06
  9.7299990E+03  3.4797532E+06
  9.7499980E+03  3.4522472E+06
  9.7699961E+03  3.4352395E+06
  9.7899980E+03  3.4102062E+06
  9.8099980E+03  3.3843532E+06
  9.8299990E+03  3.3537172E+06
  9.8499980E+03  3.3226852E+06
  9.8700000E+03  3.2997530E+06
  9.8899980E+03  3.2576110E+06
  9.9099990E+03  3.2513130E+06
  9.9300000E+03  3.2214458E+06
  9.9499980E+03  3.1984560E+06
  9.9699980E+03  3.1686262E+06
  9.9899990E+03  3.1154580E+06
  1.0024998E+04  2.7709808E+06
  1.0074998E+04  2.6257608E+06
  1.0124997E+04  2.9680125E+06
  1.0174997E+04  2.9707675E+06
  1.0224998E+04  2.9358200E+06
  1.0274997E+04  2.8891440E+06
  1.0325000E+04  2.8389552E+06
  1.0374999E+04  2.7927195E+06
  1.0425000E+04  2.7470162E+06
  1.0474998E+04  2.6869758E+06
  1.0524997E+04  2.6465685E+06
  1.0574999E+04  2.6093752E+06
  1.0625000E+04  2.5689402E+06
  1.0674997E+04  2.4932642E+06
  1.0724998E+04  2.4731980E+06
  1.0774999E+04  2.4349082E+06
  1.0824997E+04  2.3892372E+06
  1.0874997E+04  2.3112450E+06
  1.0924999E+04  1.9170882E+06
  1.0974996E+04  2.1017635E+06
  1.1025000E+04  2.2344755E+06
  1.1074998E+04  2.2207985E+06
  1.1124999E+04  2.1910948E+06
  1.1174998E+04  2.1599128E+06
  1.1224999E+04  2.1276748E+06
  1.1274997E+04  2.0649830E+06
  1.1325000E+04  2.0373449E+06
  1.1375000E+04  2.0266099E+06
  1.1425000E+04  1.9925575E+06
  1.1474997E+04  1.9702230E+06
  1.1525000E+04  1.9417885E+06
  1.1574998E+04  1.9114451E+06
  1.1625000E+04  1.8707238E+06
  1.1674998E+04  1.8347642E+06
  1.1724997E+04  1.8280472E+06
  1.1775001E+04  1.7759692E+06
  1.1824999E+04  1.7631266E+06
  1.1875000E+04  1.7312175E+06
  1.1925000E+04  1.7236451E+06
  1.1975001E+04  1.6882079E+06
  1.2024998E+04  1.6712132E+06
  1.2074996E+04  1.6428448E+06
  1.2125000E+04  1.6207578E+06
  1.2175000E+04  1.6005966E+06
  1.2225001E+04  1.5764571E+06
  1.2275001E+04  1.5516230E+06
  1.2324996E+04  1.5305348E+06
  1.2374996E+04  1.5105961E+06
  1.2424998E+04  1.4915491E+06
  1.2475000E+04  1.4655922E+06
  1.2524997E+04  1.4484876E+06
  1.2574997E+04  1.4200806E+06
  1.2624999E+04  1.4030610E+06
  1.2674997E+04  1.3841018E+06
  1.2724999E+04  1.3562866E+06
  1.2774999E+04  1.2867606E+06
  1.2825000E+04  1.0963020E+06
  1.2875001E+04  1.2664876E+06
  1.2924997E+04  1.2857090E+06
  1.2975001E+04  1.2751771E+06
  1.3024998E+04  1.2616600E+06
  1.3074999E+04  1.2457156E+06
  1.3125000E+04  1.2285850E+06
  1.3174998E+04  1.2082244E+06
  1.3224998E+04  1.1963632E+06
  1.3274997E+04  1.1804274E+06
  1.3324997E+04  1.1649665E+06
  1.3374999E+04  1.1493679E+06
  1.3424999E+04  1.1339692E+06
  1.3474999E+04  1.1185689E+06
  1.3525001E+04  1.1023814E+06
  1.3574999E+04  1.0882241E+06
  1.3624997E+04  1.0753428E+06
  1.3674997E+04  1.0603115E+06
  1.3724995E+04  1.0424150E+06
  1.3774998E+04  1.0337866E+06
  1.3824998E+04  1.0206757E+06
  1.3874996E+04  1.0088481E+06
  1.3925000E+04  9.9382338E+05
  1.3974996E+04  9.8267275E+05
  1.4024997E+04  9.7043550E+05
  1.4075001E+04  9.5846788E+05
  1.4124996E+04  9.4580450E+05
  1.4175000E+04  9.3424975E+05
  1.4225000E+04  9.2235988E+05
  1.4274994E+04  9.1067312E+05
  1.4325001E+04  8.9953425E+05
  1.4374998E+04  8.8881931E+05
  1.4424999E+04  8.6785731E+05
  1.4475000E+04  8.6650781E+05
  1.4524997E+04  8.5094688E+05
  1.4569999E+04  8.4637638E+05
  1.4620000E+04  8.5574481E+05
  1.4674998E+04  8.7256275E+05
  1.4725000E+04  8.5580675E+05
  1.4775002E+04  8.3469800E+05
  1.4824998E+04  8.1892894E+05
  1.4874996E+04  7.9896256E+05
  1.4924997E+04  7.8823488E+05
  1.4974999E+04  7.7185706E+05
  1.5024999E+04  7.5828238E+05
  1.5075000E+04  7.4328738E+05
  1.5124999E+04  7.3292975E+05
  1.5175000E+04  7.2092144E+05
  1.5225002E+04  7.1200356E+05
  1.5274998E+04  7.0113150E+05
  1.5324995E+04  6.8977319E+05
  1.5374997E+04  6.8793181E+05
  1.5425001E+04  6.6810669E+05
  1.5474996E+04  6.7261000E+05
  1.5524994E+04  6.6325969E+05
  1.5575001E+04  6.3893712E+05
  1.5624998E+04  6.6506256E+05
  1.5674997E+04  6.3286100E+05
  1.5724994E+04  6.1405188E+05
  1.5774996E+04  6.4688512E+05
  1.5825001E+04  6.3609962E+05
  1.5874995E+04  5.7380969E+05
  1.5925002E+04  6.0893819E+05
  1.5975001E+04  6.3013088E+05
  1.6049998E+04  6.0163175E+05
  1.6150001E+04  5.6280188E+05
  1.6249997E+04  5.9481531E+05
  1.6350000E+04  5.5934512E+05
  1.6449996E+04  5.2376069E+05
  1.6549998E+04  5.5786031E+05
  1.6649994E+04  5.4663769E+05
  1.6749998E+04  5.1085169E+05
  1.6849998E+04  4.7739491E+05
  1.6950000E+04  5.1118028E+05
  1.7049996E+04  5.0202550E+05
  1.7150000E+04  4.9182528E+05
  1.7249992E+04  4.7525888E+05
  1.7349994E+04  4.1804800E+05
  1.7449992E+04  4.4828066E+05
  1.7550000E+04  4.4961034E+05
  1.7649998E+04  4.4156609E+05
  1.7749994E+04  4.3336962E+05
  1.7849994E+04  4.2419941E+05
  1.7949998E+04  4.1554078E+05
  1.8050002E+04  4.0248350E+05
  1.8150002E+04  3.5809803E+05
  1.8249994E+04  3.7588831E+05
  1.8349992E+04  3.8152506E+05
  1.8449992E+04  3.7486409E+05
  1.8549998E+04  3.6644203E+05
  1.8650002E+04  3.5569634E+05
  1.8750002E+04  3.1507366E+05
  1.8850000E+04  3.3995378E+05
  1.8950004E+04  3.3814509E+05
  1.9049996E+04  3.3351416E+05
  1.9149998E+04  3.2693675E+05
  1.9249992E+04  3.1965922E+05
  1.9350000E+04  3.0903569E+05
  1.9449992E+04  2.7432906E+05
  1.9550002E+04  2.9744566E+05
  1.9649992E+04  2.9620266E+05
  1.9749992E+04  2.9116941E+05
  1.9849992E+04  2.8608838E+05
  1.9950002E+04  2.8076556E+05
  2.0050002E+04  2.7559744E+05
  2.0149996E+04  2.7052684E+05
  2.0249994E+04  2.6549575E+05
  2.0349994E+04  2.6058211E+05
  2.0449996E+04  2.5595231E+05
  2.0550000E+04  2.5129780E+05
  2.0649992E+04  2.4660336E+05
  2.0749998E+04  2.4224344E+05
  2.0849992E+04  2.3795592E+05
  2.0950004E+04  2.3371948E+05
  2.1050002E+04  2.2951233E+05
  2.1149992E+04  2.2507136E+05
  2.1250000E+04  2.2116267E+05
  2.1350002E+04  2.1731466E+05
  2.1449996E+04  2.1314823E+05
  2.1550006E+04  2.0705070E+05
  2.1649994E+04  1.8519736E+05
  2.1750002E+04  1.9820580E+05
  2.1849998E+04  1.9867647E+05
  2.1950002E+04  1.9611861E+05
  2.2050000E+04  1.9272586E+05
  2.2149996E+04  1.8928850E+05
  2.2249998E+04  1.8641844E+05
  2.2350004E+04  1.8328230E+05
  2.2449990E+04  1.8023291E+05
  2.2549994E+04  1.7711206E+05
  2.2650000E+04  1.7429398E+05
  2.2750000E+04  1.7142588E+05
  2.2850000E+04  1.6938898E+05
  2.2950004E+04  1.6931847E+05
  2.3050000E+04  1.6646223E+05
  2.3149996E+04  1.6320588E+05
  2.3250000E+04  1.6012114E+05
  2.3349996E+04  1.5704809E+05
  2.3449994E+04  1.5411309E+05
  2.3550002E+04  1.5129556E+05
  2.3649988E+04  1.4856966E+05
  2.3750000E+04  1.4587534E+05
  2.3849990E+04  1.4331608E+05
  2.3950002E+04  1.4080662E+05
  2.4050006E+04  1.3834644E+05
  2.4149992E+04  1.3591817E+05
  2.4249990E+04  1.3373100E+05
  2.4349990E+04  1.3171662E+05
  2.4450002E+04  1.2927118E+05
  2.4549990E+04  1.2780845E+05
  2.4649992E+04  1.2523418E+05
  2.4749992E+04  1.2362715E+05
  2.4850006E+04  1.2251362E+05
  2.4950000E+04  1.1846484E+05
  2.5050006E+04  1.2085180E+05
  2.5149994E+04  1.1778267E+05
  2.5249998E+04  1.1235623E+05
  2.5350004E+04  1.1360069E+05
  2.5449988E+04  1.1312641E+05
  2.5549998E+04  1.1005653E+05
  2.5649990E+04  1.0469630E+05
  2.5749990E+04  1.0733541E+05
  2.5849994E+04  1.0680264E+05
  2.5949990E+04  1.0511388E+05
  2.6049996E+04  1.0121236E+05
  2.6149998E+04  9.5929367E+04
  2.6249988E+04  9.0793484E+04
  2.6350008E+04  9.7126266E+04
  2.6449996E+04  9.7826305E+04
  2.6549994E+04  9.6505562E+04
  2.6649994E+04  9.3768352E+04
  2.6749988E+04  8.7338891E+04
  2.6849986E+04  9.1175711E+04
  2.6949986E+04  9.1400180E+04
  2.7050002E+04  9.0391211E+04
  2.7149998E+04  8.9318258E+04
  2.7249994E+04  8.7966297E+04
  2.7350006E+04  8.6522555E+04
  2.7450004E+04  8.4540562E+04
  2.7549996E+04  7.8249695E+04
  2.7649982E+04  7.9912125E+04
  2.7750004E+04  8.1551500E+04
  2.7850000E+04  8.0874156E+04
  2.7949992E+04  7.9969578E+04
  2.8049994E+04  7.8880656E+04
  2.8150002E+04  7.7809688E+04
  2.8250006E+04  7.6760898E+04
  2.8350000E+04  7.5739938E+04
  2.8450000E+04  7.4503203E+04
  2.8550002E+04  7.3211281E+04
  2.8650002E+04  7.0343133E+04
  2.8749982E+04  6.5679328E+04
  2.8849998E+04  6.9689648E+04
  2.8949986E+04  6.9556781E+04
  2.9049994E+04  6.8946539E+04
  2.9149986E+04  6.7987453E+04
  2.9249984E+04  6.7189797E+04
  2.9349980E+04  6.6320680E+04
  2.9450000E+04  6.5464461E+04
  2.9550004E+04  6.4623863E+04
  2.9649982E+04  6.3789105E+04
  2.9749992E+04  6.2970734E+04
  2.9849994E+04  6.2169992E+04
  2.9949984E+04  6.1367875E+04
  3.0049996E+04  6.0551047E+04
  3.0149994E+04  5.9601270E+04
  3.0249994E+04  5.8367844E+04
  3.0349996E+04  5.4138125E+04
  3.0449996E+04  5.4665176E+04
  3.0549996E+04  5.6350832E+04
  3.0649996E+04  5.6016918E+04
  3.0749994E+04  5.5455340E+04
  3.0849996E+04  5.4724695E+04
  3.0949994E+04  5.4092473E+04
  3.1049996E+04  5.3419965E+04
  3.1149996E+04  5.2743848E+04
  3.1249996E+04  5.2096156E+04
  3.1349996E+04  5.1486137E+04
  3.1449996E+04  5.0836746E+04
  3.1549998E+04  5.0255977E+04
  3.1649996E+04  4.9656391E+04
  3.1749998E+04  4.9038359E+04
  3.1849996E+04  4.8472027E+04
  3.1949994E+04  4.7885973E+04
  3.2099996E+04  4.7029828E+04
  3.2299992E+04  4.5927395E+04
  3.2499994E+04  4.4847297E+04
  3.2699996E+04  4.3645441E+04
  3.2899996E+04  4.0316801E+04
  3.3099996E+04  4.1168578E+04
  3.3299992E+04  4.1060543E+04
  3.3499996E+04  4.0165672E+04
  3.3699996E+04  3.9165559E+04
  3.3899996E+04  3.8254008E+04
  3.4099996E+04  3.7364176E+04
  3.4299996E+04  3.6510789E+04
  3.4499992E+04  3.5686715E+04
  3.4699996E+04  3.4852258E+04
  3.4899996E+04  3.4061117E+04
  3.5099996E+04  3.3300293E+04
  3.5299996E+04  3.2550633E+04
  3.5499996E+04  3.1830922E+04
  3.5699992E+04  3.1112090E+04
  3.5899992E+04  3.0480754E+04
  3.6099996E+04  2.9775877E+04
  3.6299992E+04  2.9213881E+04
  3.6499992E+04  2.8494053E+04
  3.6699992E+04  2.8054350E+04
  3.6899992E+04  2.7206785E+04
  3.7099996E+04  2.6841053E+04
  3.7299996E+04  2.5586912E+04
  3.7499992E+04  2.4647014E+04
  3.7699996E+04  2.5261139E+04
  3.7899996E+04  2.4852477E+04
  3.8099992E+04  2.4019760E+04
  3.8299996E+04  2.3592969E+04
  3.8499996E+04  2.3429389E+04
  3.8699996E+04  2.2965258E+04
  3.8899992E+04  2.2352508E+04
  3.9099996E+04  2.1478082E+04
  3.9299992E+04  2.1586135E+04
  3.9499992E+04  2.1271254E+04
  3.9699992E+04  2.0877912E+04
  3.9900000E+04  2.0455955E+04
  4.0099996E+04  1.9628221E+04
  4.0299992E+04  1.9129682E+04
  4.0499996E+04  1.8298576E+04
  4.0699992E+04  1.8802570E+04
  4.0899992E+04  1.8574686E+04
  4.1099996E+04  1.8250236E+04
  4.1299996E+04  1.7890412E+04
  4.1499992E+04  1.7432914E+04
  4.1699992E+04  1.6509576E+04
  4.1899996E+04  1.6775834E+04
  4.2099996E+04  1.6601262E+04
  4.2299992E+04  1.6322675E+04
  4.2499996E+04  1.6025340E+04
  4.2699992E+04  1.5736800E+04
  4.2899992E+04  1.5453580E+04
  4.3099996E+04  1.5175569E+04
  4.3299996E+04  1.4902666E+04
  4.3499992E+04  1.4568857E+04
  4.3699996E+04  1.3774582E+04
  4.3899996E+04  1.3862163E+04
  4.4099992E+04  1.3848938E+04
  4.4299992E+04  1.3638016E+04
  4.4499996E+04  1.3400643E+04
  4.4699996E+04  1.3226380E+04
  4.4899996E+04  1.2996984E+04
  4.5099992E+04  1.2776438E+04
  4.5299992E+04  1.2556347E+04
  4.5499996E+04  1.2343676E+04
  4.5699992E+04  1.2131944E+04
  4.5899996E+04  1.1926841E+04
  4.6099996E+04  1.1707904E+04
  4.6299992E+04  1.1438038E+04
  4.6499988E+04  1.0676006E+04
  4.6699992E+04  1.0503927E+04
  4.6899992E+04  1.0805971E+04
  4.7099992E+04  1.0754397E+04
  4.7299992E+04  1.0611115E+04
  4.7499996E+04  1.0434248E+04
  4.7699992E+04  1.0266823E+04
  4.7899992E+04  1.0102347E+04
  4.8099996E+04  9.9392061E+03
  4.8299992E+04  9.7794463E+03
  4.8499992E+04  9.6235078E+03
  4.8700000E+04  9.4702969E+03
  4.8899992E+04  9.3197734E+03
  4.9099988E+04  9.1718799E+03
  4.9299988E+04  9.0280459E+03
  4.9499996E+04  8.8867178E+03
  4.9699992E+04  8.7473740E+03
  4.9899988E+04  8.6109365E+03
  5.0099996E+04  8.4778242E+03
  5.0299996E+04  8.3460801E+03
  5.0499996E+04  8.2185039E+03
  5.0699996E+04  8.0926782E+03
  5.0899992E+04  7.9532998E+03
  5.1099992E+04  7.7492578E+03
  5.1299996E+04  7.2925200E+03
  5.1499988E+04  7.5416353E+03
  5.1699996E+04  7.4887803E+03
  5.1899992E+04  7.3857661E+03
  5.2099992E+04  7.2757153E+03
  5.2299996E+04  7.1675649E+03
  5.2499996E+04  7.0612847E+03
  5.2699996E+04  6.9572725E+03
  5.2899992E+04  6.8550571E+03
  5.3099988E+04  6.7546069E+03
  5.3299988E+04  6.6558892E+03
  5.3499992E+04  6.5588755E+03
  5.3699992E+04  6.4635356E+03
  5.3899992E+04  6.3706660E+03
  5.4099992E+04  6.2789912E+03
  5.4299984E+04  6.1888994E+03
  5.4499988E+04  6.1003594E+03
  5.4699996E+04  6.0133467E+03
  5.4899992E+04  5.9286338E+03
  5.5099992E+04  5.8445942E+03
  5.5299988E+04  5.7623984E+03
  5.5499988E+04  5.6816221E+03
  5.5699992E+04  5.6014673E+03
  5.5899992E+04  5.5223135E+03
  5.6099988E+04  5.4468120E+03
  5.6299996E+04  5.3718608E+03
  5.6499988E+04  5.2978364E+03
  5.6699988E+04  5.2250918E+03
  5.6899992E+04  5.1536074E+03
  5.7099996E+04  5.0833623E+03
  5.7299988E+04  5.0139731E+03
  5.7499988E+04  4.9461475E+03
  5.7699988E+04  4.8791411E+03
  5.7899996E+04  4.8132969E+03
  5.8099988E+04  4.7489556E+03
  5.8299996E+04  4.6853799E+03
  5.8499992E+04  4.6334253E+03
  5.8699988E+04  4.5587510E+03
  5.8899988E+04  4.4462676E+03
  5.9099992E+04  4.1944351E+03
  5.9299988E+04  4.3489746E+03
  5.9499996E+04  4.3262217E+03
  5.9699988E+04  4.2784434E+03
  5.9899992E+04  4.2225142E+03
  6.0099992E+04  4.1678979E+03
  6.0299992E+04  4.1139116E+03
  6.0499988E+04  4.0608757E+03
  6.0699992E+04  4.0084473E+03
  6.0899992E+04  3.9569426E+03
  6.1099988E+04  3.9060254E+03
  6.1299992E+04  3.8566440E+03
  6.1499988E+04  3.8078228E+03
  6.1699988E+04  3.7595515E+03
  6.1899996E+04  3.7121355E+03
  6.2099996E+04  3.6652524E+03
  6.2299988E+04  3.6188950E+03
  6.2499992E+04  3.5739741E+03
  6.2699988E+04  3.5292483E+03
  6.2899996E+04  3.4856226E+03
  6.3099984E+04  3.4421794E+03
  6.3299996E+04  3.3995112E+03
  6.3499984E+04  3.3576116E+03
  6.3699984E+04  3.3167600E+03
  6.3900000E+04  3.2760583E+03
  6.4199992E+04  3.2164185E+03
  6.4599984E+04  3.1387798E+03
  6.4999992E+04  3.0636531E+03
  6.5399992E+04  2.9906848E+03
  6.5799992E+04  2.9198132E+03
  6.6199984E+04  2.8507056E+03
  6.6599984E+04  2.7841228E+03
  6.6999992E+04  2.7194561E+03
  6.7399992E+04  2.6563879E+03
  6.7799992E+04  2.5953716E+03
  6.8199992E+04  2.5360120E+03
  6.8599992E+04  2.4780857E+03
  6.8999984E+04  2.4219331E+03
  6.9399984E+04  2.3674790E+03
  6.9800000E+04  2.3145527E+03
  7.0199992E+04  2.2631636E+03
  7.0599984E+04  2.2130034E+03
  7.0999977E+04  2.1645884E+03
  7.1399977E+04  2.1169746E+03
  7.1799984E+04  2.0709817E+03
  7.2199984E+04  2.0256920E+03
  7.2600000E+04  1.9824086E+03
  7.2999984E+04  1.9402213E+03
  7.3400000E+04  1.8988096E+03
  7.3799984E+04  1.8585328E+03
  7.4199992E+04  1.8127164E+03
  7.4599992E+04  1.7180189E+03
  7.5000000E+04  1.6787856E+03
  7.5399992E+04  1.7005073E+03
  7.5799992E+04  1.6728398E+03
  7.6199984E+04  1.6387192E+03
  7.6599992E+04  1.6052784E+03
  7.6999992E+04  1.5727057E+03
  7.7399992E+04  1.5409391E+03
  7.7799984E+04  1.5099987E+03
  7.8199984E+04  1.4798049E+03
  7.8599984E+04  1.4503596E+03
  7.8999984E+04  1.4216447E+03
  7.9399984E+04  1.3936234E+03
  7.9800000E+04  1.3662977E+03
  8.0199992E+04  1.3396335E+03
  8.0599984E+04  1.3136150E+03
  8.0999992E+04  1.2882440E+03
  8.1399977E+04  1.2634348E+03
  8.1799984E+04  1.2392623E+03
  8.2199984E+04  1.2156770E+03
  8.2599992E+04  1.1926121E+03
  8.2999984E+04  1.1701088E+03
  8.3400000E+04  1.1479979E+03
  8.3799992E+04  1.1264434E+03
  8.4199992E+04  1.1055837E+03
  8.4599977E+04  1.0852017E+03
  8.4999977E+04  1.0652029E+03
  8.5399984E+04  1.0456287E+03
  8.5799984E+04  1.0265355E+03
  8.6199992E+04  1.0078636E+03
  8.6599992E+04  9.8962018E+02
  8.6999984E+04  9.7179584E+02
  8.7399992E+04  9.5434943E+02
  8.7799992E+04  9.3730450E+02
  8.8199984E+04  9.2060602E+02
  8.8599977E+04  9.0429242E+02
  8.8999992E+04  8.8837018E+02
  8.9399977E+04  8.7278650E+02
  8.9799977E+04  8.5751868E+02
  9.0199984E+04  8.4260461E+02
  9.0599984E+04  8.2800769E+02
  9.0999992E+04  8.1370654E+02
  9.1400000E+04  7.9973834E+02
  9.1799969E+04  7.8605396E+02
  9.2199969E+04  7.7266052E+02
  9.2599984E+04  7.5956641E+02
  9.3000000E+04  7.4672388E+02
  9.3399984E+04  7.3416974E+02
  9.3799984E+04  7.2186993E+02
  9.4199977E+04  7.0983350E+02
  9.4599984E+04  6.9802777E+02
  9.4999969E+04  6.8648853E+02
  9.5399984E+04  6.7514374E+02
  9.5799984E+04  6.6409509E+02
  9.6199992E+04  6.5323218E+02
  9.6599984E+04  6.4260345E+02
  9.7000000E+04  6.3219086E+02
  9.7399977E+04  6.2197833E+02
  9.7799984E+04  6.1197375E+02
  9.8199977E+04  6.0216107E+02
  9.8599977E+04  5.9256110E+02
  9.8999992E+04  5.8315723E+02
  9.9399984E+04  5.7392200E+02
  9.9799977E+04  5.6486395E+02
  1.0019999E+05  5.5599139E+02
  1.9999991E+05  3.5573654E+01
  3.9999994E+05  2.2116601E+00
  5.9999981E+05  4.3303692E-01
  7.9999994E+05  1.3591564E-01
